<?xml version="1.0" encoding="utf-8"?>
<!-- Generator: Adobe Illustrator 16.0.0, SVG Export Plug-In . SVG Version: 6.00 Build 0)  -->
<!DOCTYPE svg PUBLIC "-//W3C//DTD SVG 1.0//EN" "http://www.w3.org/TR/2001/REC-SVG-20010904/DTD/svg10.dtd" [
	<!ENTITY st0 "fill:none;stroke:#E6007E;stroke-width:4.9167;stroke-linecap:round;stroke-linejoin:round;stroke-miterlimit:10;">
	<!ENTITY st1 "fill:none;stroke:#B2B2B2;stroke-width:4.5992;stroke-linecap:round;stroke-linejoin:round;stroke-miterlimit:10;">
	<!ENTITY st2 "fill:none;stroke:#E6007E;stroke-width:3.8857;stroke-linecap:round;stroke-linejoin:round;stroke-miterlimit:10;">
	
		<!ENTITY st3 "display:inline;fill:none;stroke:#878787;stroke-width:3.2851;stroke-linecap:round;stroke-linejoin:round;stroke-miterlimit:10;">
	<!ENTITY st4 "fill:none;stroke:#B2B2B2;stroke-width:3.596;stroke-linecap:round;stroke-linejoin:round;stroke-miterlimit:10;">
	<!ENTITY st5 "fill:none;stroke:#B2B2B2;stroke-width:4.5769;stroke-linecap:round;stroke-linejoin:round;stroke-miterlimit:10;">
	<!ENTITY st6 "fill:none;stroke:#C6C6C6;stroke-width:5;stroke-linecap:round;stroke-linejoin:round;stroke-miterlimit:10;">
	<!ENTITY st7 "fill:none;stroke:#E6007E;stroke-width:5;stroke-linecap:round;stroke-linejoin:round;stroke-miterlimit:10;">
	<!ENTITY st8 "fill:none;stroke:#B2B2B2;stroke-width:5.0005;stroke-linecap:round;stroke-linejoin:round;">
	<!ENTITY st9 "fill:none;stroke:#E6007E;stroke-width:4.5992;stroke-linecap:round;stroke-linejoin:round;stroke-miterlimit:10;">
	<!ENTITY st10 "fill:none;stroke:#878787;stroke-width:5.0901;stroke-linecap:round;stroke-linejoin:round;stroke-miterlimit:10;">
	<!ENTITY st11 "fill:#0B727F;stroke:#878787;stroke-width:5;stroke-linecap:round;stroke-linejoin:round;stroke-miterlimit:10;">
	<!ENTITY st12 "fill:none;stroke:#B2B2B2;stroke-width:3.5003;stroke-linecap:round;stroke-linejoin:round;stroke-miterlimit:10;">
	<!ENTITY st13 "fill:none;stroke:#B2B2B2;stroke-width:4;stroke-linecap:round;stroke-linejoin:round;stroke-miterlimit:10;">
	<!ENTITY st14 "fill:none;stroke:#B2B2B2;stroke-width:5;stroke-linecap:round;stroke-linejoin:round;stroke-miterlimit:10;">
	<!ENTITY st15 "fill:#FFFFFF;stroke:#B2B2B2;stroke-width:5;stroke-linecap:round;stroke-linejoin:round;stroke-miterlimit:10;">
	<!ENTITY st16 "fill:none;stroke:#B2B2B2;stroke-width:4.3152;stroke-linecap:round;stroke-linejoin:round;stroke-miterlimit:10;">
	<!ENTITY st17 "fill:none;stroke:#B2B2B2;stroke-width:5.0005;stroke-linecap:round;stroke-linejoin:round;stroke-miterlimit:10;">
	<!ENTITY st18 "fill:none;stroke:#878787;stroke-width:3.596;stroke-linecap:round;stroke-linejoin:round;stroke-miterlimit:10;">
	<!ENTITY st19 "fill:none;stroke:#E6007E;stroke-width:3.596;stroke-linecap:round;stroke-linejoin:round;stroke-miterlimit:10;">
	<!ENTITY st20 "fill:none;stroke:#878787;stroke-width:5.0005;stroke-linecap:round;stroke-linejoin:round;stroke-miterlimit:10;">
	<!ENTITY st21 "fill:none;stroke:#B2B2B2;stroke-width:5.0258;stroke-linecap:round;stroke-linejoin:round;stroke-miterlimit:10;">
	<!ENTITY st22 "fill:none;stroke:#9D9D9C;stroke-width:3.5706;stroke-linecap:round;stroke-linejoin:round;stroke-miterlimit:10;">
	
		<!ENTITY st23 "fill:#FFFFFF;stroke:#878787;stroke-width:5.0901;stroke-linecap:round;stroke-linejoin:round;stroke-miterlimit:10;">
	<!ENTITY st24 "fill:none;stroke:#E6007E;stroke-width:4.0727;stroke-linecap:round;stroke-linejoin:round;stroke-miterlimit:10;">
	
		<!ENTITY st25 "fill:#FFFFFF;stroke:#B2B2B2;stroke-width:5.0005;stroke-linecap:round;stroke-linejoin:round;stroke-miterlimit:10;">
	
		<!ENTITY st26 "fill:#FFFFFF;stroke:#B2B2B2;stroke-width:3.2851;stroke-linecap:round;stroke-linejoin:round;stroke-miterlimit:10;">
	<!ENTITY st27 "fill:none;stroke:#878787;stroke-width:4;stroke-linecap:round;stroke-linejoin:round;stroke-miterlimit:10;">
	<!ENTITY st28 "fill:none;stroke:#878787;stroke-width:5;stroke-linecap:round;stroke-linejoin:round;stroke-miterlimit:10;">
	<!ENTITY st29 "fill:none;stroke:#E6007E;stroke-width:5.0005;stroke-linecap:round;stroke-linejoin:round;stroke-miterlimit:10;">
	<!ENTITY st30 "fill:#FFFFFF;stroke:#878787;stroke-width:5;stroke-linecap:round;stroke-linejoin:round;stroke-miterlimit:10;">
	
		<!ENTITY st31 "display:none;fill:none;stroke:#878787;stroke-width:5;stroke-linecap:round;stroke-linejoin:round;stroke-miterlimit:10;">
	<!ENTITY st32 "display:none;">
	<!ENTITY st33 "fill:none;stroke:#878787;stroke-width:3.0132;stroke-linecap:round;stroke-linejoin:round;stroke-miterlimit:10;">
	
		<!ENTITY st34 "fill:none;stroke:#B2B2B2;stroke-width:5.0005;stroke-linecap:round;stroke-linejoin:round;stroke-dasharray:9.0425,9.0425;">
	<!ENTITY st35 "fill:none;stroke:#E6007E;stroke-width:4.5004;stroke-linecap:round;stroke-linejoin:round;stroke-miterlimit:10;">
	
		<!ENTITY st36 "fill:#FFFFFF;stroke:#E6007E;stroke-width:5.0005;stroke-linecap:round;stroke-linejoin:round;stroke-miterlimit:10;">
]>
<svg version="1.0" xmlns="http://www.w3.org/2000/svg" xmlns:xlink="http://www.w3.org/1999/xlink" x="0px" y="0px" width="240px"
	 height="240px" viewBox="0 0 240 240" style="enable-background:new 0 0 240 240;" xml:space="preserve">
<g id="pravítka" style="&st32;">
</g>
<g id="zjištění_očekávání">
</g>
<g id="prostory">
</g>
<g id="příběh">
</g>
<g id="program">
</g>
<g id="scénář">
</g>
<g id="kulturní_program">
</g>
<g id="moderace">
</g>
<g id="režie">
</g>
<g id="produkce">
</g>
<g id="technické_zajištění">
</g>
<g id="catering">
</g>
<g id="hostesky">
</g>
<g id="foto">
</g>
<g id="video">
</g>
<g id="vizáž">
</g>
<g id="sportovní_zázemí">
</g>
<g id="grafika">
</g>
<g id="branding">
</g>
<g id="tisk">
	<g>
		<path style="&st14;" d="M121.878,79.978c28.395-0.031,55.738-0.177,55.738-0.177s8.771-1.697,9.338,10.186
			c0.673,14.134,5.956,58.002-17.26,58.002c-9.337,0-13.104-0.04-14.165-0.09"/>
		<path style="&st14;" d="M123.711,79.983c-28.395-0.032-62.529,0.388-62.529,0.388s-8.771-1.697-9.337,10.186
			c-0.673,14.134-5.957,58.003,17.26,58.003c9.088,0,12.748-0.038,13.73-0.087"/>
		<path style="&st14;" d="M79.439,79.612V38.304c0,0-1.698-9.242,8.488-9.242c10.186,0,63,0,63,0s8.3-0.378,8.3,7.922
			c0,8.299,0,43.006,0,43.006"/>
		<polyline style="&st28;" points="89.248,79.236 89.248,37.738 138.667,37.738 149.701,48.772 149.701,79.047 		"/>
		<polyline style="&st28;" points="137.535,38.304 137.535,49.998 149.041,49.998 		"/>
		<path style="&st28;" d="M149.417,125.259c0,0,0.472,19.333,0.377,39.611c-0.041,9.055-6.035,9.432-6.035,9.432
			s-7.734,1.887-8.488-5.281c-0.809-7.69,6.979-7.923,6.979-7.923H84.343c0,0-6.227,0.188-6.414,6.979
			c-0.188,6.791,5.471,7.168,5.471,7.168l60.359-0.943"/>
		<line style="&st28;" x1="89.058" y1="126.769" x2="89.058" y2="159.778"/>
		<line style="&st28;" x1="100.941" y1="139.028" x2="136.779" y2="139.028"/>
		<line style="&st28;" x1="100.941" y1="149.215" x2="136.779" y2="149.215"/>
		<line style="&st14;" x1="52.559" y1="91.401" x2="147.841" y2="91.401"/>
		<line style="&st14;" x1="174.9" y1="105.904" x2="186.388" y2="105.904"/>
		<path style="&st14;" d="M72.931,140.348c-2.83,0.851-7.138,0.603-8.771-0.564c-3.961-2.829-5.375-7.922-5.658-11.034"/>
		<circle style="&st14;" cx="162.133" cy="92.229" r="4.915"/>
		<line style="&st7;" x1="80.381" y1="124.506" x2="157.906" y2="124.506"/>
	</g>
	<g>
		<g>
			<path d="M101.686,218.493h-4.087V202.62h-5.234v-3.401h14.555v3.401h-5.234V218.493z"/>
			<path d="M109.398,199.944c0-1.31,0.729-1.965,2.188-1.965s2.188,0.655,2.188,1.965c0,0.624-0.183,1.109-0.547,1.456
				c-0.365,0.348-0.912,0.521-1.641,0.521C110.127,201.921,109.398,201.263,109.398,199.944z M113.59,218.493h-4.021v-14.739h4.021
				V218.493z"/>
			<path d="M128.092,214.116c0,1.512-0.525,2.663-1.575,3.454c-1.051,0.791-2.622,1.187-4.713,1.187
				c-1.072,0-1.986-0.072-2.742-0.218c-0.756-0.145-1.463-0.357-2.123-0.64v-3.322c0.747,0.353,1.589,0.646,2.524,0.884
				c0.937,0.237,1.76,0.356,2.472,0.356c1.459,0,2.188-0.422,2.188-1.266c0-0.316-0.097-0.574-0.29-0.771
				c-0.193-0.198-0.527-0.422-1.002-0.673c-0.475-0.25-1.107-0.542-1.898-0.876c-1.134-0.475-1.967-0.914-2.499-1.318
				s-0.918-0.868-1.16-1.392c-0.242-0.522-0.362-1.167-0.362-1.931c0-1.31,0.508-2.323,1.522-3.039
				c1.016-0.717,2.455-1.074,4.318-1.074c1.775,0,3.502,0.387,5.181,1.16l-1.213,2.9c-0.738-0.316-1.428-0.576-2.07-0.778
				s-1.296-0.304-1.964-0.304c-1.187,0-1.78,0.321-1.78,0.963c0,0.36,0.191,0.672,0.574,0.936c0.382,0.264,1.219,0.655,2.511,1.174
				c1.151,0.466,1.995,0.901,2.531,1.305c0.536,0.405,0.932,0.871,1.187,1.398S128.092,213.387,128.092,214.116z"/>
			<path d="M135.093,210.478l1.753-2.241l4.126-4.482h4.535l-5.854,6.394l6.209,8.346h-4.641l-4.245-5.973l-1.727,1.385v4.588
				h-4.021v-20.514h4.021v9.149l-0.211,3.349H135.093z"/>
		</g>
	</g>
</g>
<g id="dekorace">
</g>
<g id="dárky">
</g>
<g id="PR">
</g>
<g id="podpora_komunikace">
</g>
<g id="Layer_25">
</g>
</svg>
