<?xml version="1.0" encoding="utf-8"?>
<!-- Generator: Adobe Illustrator 16.0.0, SVG Export Plug-In . SVG Version: 6.00 Build 0)  -->
<!DOCTYPE svg PUBLIC "-//W3C//DTD SVG 1.0//EN" "http://www.w3.org/TR/2001/REC-SVG-20010904/DTD/svg10.dtd" [
	<!ENTITY st0 "fill:none;stroke:#E6007E;stroke-width:4.9167;stroke-linecap:round;stroke-linejoin:round;stroke-miterlimit:10;">
	<!ENTITY st1 "fill:none;stroke:#B2B2B2;stroke-width:4.5992;stroke-linecap:round;stroke-linejoin:round;stroke-miterlimit:10;">
	<!ENTITY st2 "fill:none;stroke:#E6007E;stroke-width:3.8857;stroke-linecap:round;stroke-linejoin:round;stroke-miterlimit:10;">
	
		<!ENTITY st3 "display:inline;fill:none;stroke:#878787;stroke-width:3.2851;stroke-linecap:round;stroke-linejoin:round;stroke-miterlimit:10;">
	<!ENTITY st4 "fill:none;stroke:#B2B2B2;stroke-width:3.596;stroke-linecap:round;stroke-linejoin:round;stroke-miterlimit:10;">
	<!ENTITY st5 "fill:none;stroke:#B2B2B2;stroke-width:4.5769;stroke-linecap:round;stroke-linejoin:round;stroke-miterlimit:10;">
	<!ENTITY st6 "fill:none;stroke:#C6C6C6;stroke-width:5;stroke-linecap:round;stroke-linejoin:round;stroke-miterlimit:10;">
	<!ENTITY st7 "fill:none;stroke:#E6007E;stroke-width:5;stroke-linecap:round;stroke-linejoin:round;stroke-miterlimit:10;">
	<!ENTITY st8 "fill:none;stroke:#B2B2B2;stroke-width:5.0005;stroke-linecap:round;stroke-linejoin:round;">
	<!ENTITY st9 "fill:none;stroke:#E6007E;stroke-width:4.5992;stroke-linecap:round;stroke-linejoin:round;stroke-miterlimit:10;">
	<!ENTITY st10 "fill:none;stroke:#878787;stroke-width:5.0901;stroke-linecap:round;stroke-linejoin:round;stroke-miterlimit:10;">
	<!ENTITY st11 "fill:#0B727F;stroke:#878787;stroke-width:5;stroke-linecap:round;stroke-linejoin:round;stroke-miterlimit:10;">
	<!ENTITY st12 "fill:none;stroke:#B2B2B2;stroke-width:3.5003;stroke-linecap:round;stroke-linejoin:round;stroke-miterlimit:10;">
	<!ENTITY st13 "fill:none;stroke:#B2B2B2;stroke-width:4;stroke-linecap:round;stroke-linejoin:round;stroke-miterlimit:10;">
	<!ENTITY st14 "fill:none;stroke:#B2B2B2;stroke-width:5;stroke-linecap:round;stroke-linejoin:round;stroke-miterlimit:10;">
	<!ENTITY st15 "fill:#FFFFFF;stroke:#B2B2B2;stroke-width:5;stroke-linecap:round;stroke-linejoin:round;stroke-miterlimit:10;">
	<!ENTITY st16 "fill:none;stroke:#B2B2B2;stroke-width:4.3152;stroke-linecap:round;stroke-linejoin:round;stroke-miterlimit:10;">
	<!ENTITY st17 "fill:none;stroke:#B2B2B2;stroke-width:5.0005;stroke-linecap:round;stroke-linejoin:round;stroke-miterlimit:10;">
	<!ENTITY st18 "fill:none;stroke:#878787;stroke-width:3.596;stroke-linecap:round;stroke-linejoin:round;stroke-miterlimit:10;">
	<!ENTITY st19 "fill:none;stroke:#E6007E;stroke-width:3.596;stroke-linecap:round;stroke-linejoin:round;stroke-miterlimit:10;">
	<!ENTITY st20 "fill:none;stroke:#878787;stroke-width:5.0005;stroke-linecap:round;stroke-linejoin:round;stroke-miterlimit:10;">
	<!ENTITY st21 "fill:none;stroke:#B2B2B2;stroke-width:5.0258;stroke-linecap:round;stroke-linejoin:round;stroke-miterlimit:10;">
	<!ENTITY st22 "fill:none;stroke:#9D9D9C;stroke-width:3.5706;stroke-linecap:round;stroke-linejoin:round;stroke-miterlimit:10;">
	
		<!ENTITY st23 "fill:#FFFFFF;stroke:#878787;stroke-width:5.0901;stroke-linecap:round;stroke-linejoin:round;stroke-miterlimit:10;">
	<!ENTITY st24 "fill:none;stroke:#E6007E;stroke-width:4.0727;stroke-linecap:round;stroke-linejoin:round;stroke-miterlimit:10;">
	
		<!ENTITY st25 "fill:#FFFFFF;stroke:#B2B2B2;stroke-width:5.0005;stroke-linecap:round;stroke-linejoin:round;stroke-miterlimit:10;">
	
		<!ENTITY st26 "fill:#FFFFFF;stroke:#B2B2B2;stroke-width:3.2851;stroke-linecap:round;stroke-linejoin:round;stroke-miterlimit:10;">
	<!ENTITY st27 "fill:none;stroke:#878787;stroke-width:4;stroke-linecap:round;stroke-linejoin:round;stroke-miterlimit:10;">
	<!ENTITY st28 "fill:none;stroke:#878787;stroke-width:5;stroke-linecap:round;stroke-linejoin:round;stroke-miterlimit:10;">
	<!ENTITY st29 "fill:none;stroke:#E6007E;stroke-width:5.0005;stroke-linecap:round;stroke-linejoin:round;stroke-miterlimit:10;">
	<!ENTITY st30 "fill:#FFFFFF;stroke:#878787;stroke-width:5;stroke-linecap:round;stroke-linejoin:round;stroke-miterlimit:10;">
	
		<!ENTITY st31 "display:none;fill:none;stroke:#878787;stroke-width:5;stroke-linecap:round;stroke-linejoin:round;stroke-miterlimit:10;">
	<!ENTITY st32 "display:none;">
	<!ENTITY st33 "fill:none;stroke:#878787;stroke-width:3.0132;stroke-linecap:round;stroke-linejoin:round;stroke-miterlimit:10;">
	
		<!ENTITY st34 "fill:none;stroke:#B2B2B2;stroke-width:5.0005;stroke-linecap:round;stroke-linejoin:round;stroke-dasharray:9.0425,9.0425;">
	<!ENTITY st35 "fill:none;stroke:#E6007E;stroke-width:4.5004;stroke-linecap:round;stroke-linejoin:round;stroke-miterlimit:10;">
	
		<!ENTITY st36 "fill:#FFFFFF;stroke:#E6007E;stroke-width:5.0005;stroke-linecap:round;stroke-linejoin:round;stroke-miterlimit:10;">
]>
<svg version="1.0" xmlns="http://www.w3.org/2000/svg" xmlns:xlink="http://www.w3.org/1999/xlink" x="0px" y="0px" width="240px"
	 height="240px" viewBox="0 0 240 240" style="enable-background:new 0 0 240 240;" xml:space="preserve">
<g id="pravítka" style="&st32;">
</g>
<g id="zjištění_očekávání">
</g>
<g id="prostory">
</g>
<g id="příběh">
</g>
<g id="program">
	<g>
		<path style="&st14;" d="M172.643,170.064c0,3.495-2.88,6.328-6.433,6.328H74.875c-3.553,0-6.434-2.833-6.434-6.328V58.27
			c0-3.495,2.881-6.329,6.434-6.329h91.336c3.553,0,6.433,2.834,6.433,6.329V170.064z"/>
		<path style="&st15;" d="M144.542,44.771h-6.496v-6.75c0-3.495-3.231-6.328-7.218-6.328h-20.21c-3.986,0-7.219,2.833-7.219,6.328
			v6.75h-6.015c-3.985,0-7.218,2.833-7.218,6.327v3.797c0,3.495,3.232,6.328,7.218,6.328h47.157c3.986,0,7.217-2.833,7.217-6.328
			v-3.797C151.759,47.604,148.529,44.771,144.542,44.771z"/>
		<path style="&st14;" d="M127.925,42.027c0,1.632-1.322,2.953-2.953,2.953h-8.438c-1.632,0-2.953-1.321-2.953-2.953l0,0
			c0-1.631,1.321-2.952,2.953-2.952h8.438C126.603,39.075,127.925,40.396,127.925,42.027L127.925,42.027z"/>
		<rect x="80.675" y="77.886" style="&st7;" width="11.391" height="11.391"/>
		<line style="&st14;" x1="104.089" y1="83.582" x2="160.197" y2="83.582"/>
		<rect x="80.675" y="101.299" style="&st7;" width="11.391" height="11.39"/>
		<line style="&st14;" x1="104.089" y1="106.995" x2="160.197" y2="106.995"/>
		<rect x="80.675" y="124.713" style="&st7;" width="11.391" height="11.39"/>
		<line style="&st14;" x1="104.089" y1="130.409" x2="160.197" y2="130.409"/>
		<rect x="80.675" y="148.127" style="&st7;" width="11.391" height="11.391"/>
		<line style="&st14;" x1="104.089" y1="153.822" x2="160.197" y2="153.822"/>
	</g>
	<g>
		<g>
			<path d="M77.126,205.352c0,2.074-0.648,3.661-1.944,4.759c-1.297,1.1-3.14,1.648-5.531,1.648h-1.753v6.855h-4.087V199.34h6.157
				c2.338,0,4.115,0.503,5.333,1.51C76.517,201.855,77.126,203.356,77.126,205.352z M67.897,208.41h1.345
				c1.257,0,2.197-0.248,2.821-0.745c0.624-0.496,0.936-1.219,0.936-2.168c0-0.958-0.262-1.666-0.785-2.123
				s-1.342-0.686-2.458-0.686h-1.859V208.41z"/>
			<path d="M88.675,203.599c0.545,0,0.998,0.039,1.358,0.118l-0.303,3.771c-0.325-0.088-0.721-0.132-1.187-0.132
				c-1.283,0-2.283,0.329-2.999,0.989c-0.717,0.658-1.075,1.582-1.075,2.768v7.502h-4.021v-14.739h3.045l0.593,2.479h0.198
				c0.457-0.826,1.075-1.492,1.852-1.997C86.915,203.851,87.761,203.599,88.675,203.599z"/>
			<path d="M106.104,211.218c0,2.4-0.633,4.276-1.898,5.63s-3.028,2.03-5.287,2.03c-1.415,0-2.663-0.31-3.744-0.93
				c-1.081-0.619-1.912-1.51-2.492-2.67s-0.87-2.513-0.87-4.061c0-2.407,0.628-4.279,1.885-5.615s3.023-2.004,5.3-2.004
				c1.415,0,2.663,0.308,3.744,0.922c1.081,0.616,1.912,1.499,2.492,2.65S106.104,209.672,106.104,211.218z M95.913,211.218
				c0,1.46,0.239,2.563,0.718,3.31s1.259,1.12,2.34,1.12c1.072,0,1.843-0.371,2.314-1.113c0.47-0.743,0.705-1.848,0.705-3.316
				c0-1.458-0.237-2.553-0.712-3.282s-1.252-1.095-2.333-1.095c-1.072,0-1.846,0.363-2.32,1.088
				C96.15,208.654,95.913,209.751,95.913,211.218z"/>
			<path d="M122.253,203.875v2.044l-2.307,0.593c0.422,0.659,0.633,1.397,0.633,2.215c0,1.582-0.552,2.814-1.654,3.698
				c-1.104,0.883-2.635,1.324-4.595,1.324l-0.725-0.039l-0.593-0.066c-0.413,0.316-0.62,0.669-0.62,1.055
				c0,0.58,0.738,0.871,2.215,0.871h2.505c1.617,0,2.85,0.347,3.698,1.041s1.272,1.714,1.272,3.059c0,1.723-0.719,3.059-2.155,4.008
				c-1.438,0.949-3.5,1.424-6.19,1.424c-2.057,0-3.628-0.358-4.713-1.074c-1.085-0.717-1.628-1.721-1.628-3.013
				c0-0.888,0.277-1.631,0.831-2.228c0.554-0.598,1.367-1.024,2.439-1.279c-0.413-0.176-0.773-0.464-1.081-0.863
				c-0.308-0.4-0.461-0.824-0.461-1.272c0-0.563,0.163-1.03,0.488-1.404c0.325-0.373,0.795-0.74,1.411-1.101
				c-0.773-0.334-1.387-0.87-1.839-1.608s-0.679-1.608-0.679-2.61c0-1.608,0.523-2.852,1.569-3.73s2.54-1.318,4.482-1.318
				c0.413,0,0.903,0.037,1.47,0.111c0.566,0.075,0.929,0.13,1.087,0.165H122.253z M110.876,220.697c0,0.554,0.266,0.989,0.798,1.306
				c0.531,0.316,1.276,0.475,2.234,0.475c1.441,0,2.571-0.198,3.388-0.594s1.226-0.936,1.226-1.621c0-0.555-0.242-0.937-0.725-1.147
				s-1.23-0.316-2.241-0.316h-2.083c-0.738,0-1.356,0.174-1.852,0.521C111.124,219.667,110.876,220.126,110.876,220.697z
				 M112.339,208.7c0,0.8,0.182,1.433,0.547,1.898c0.364,0.466,0.92,0.699,1.667,0.699c0.756,0,1.31-0.233,1.661-0.699
				s0.527-1.099,0.527-1.898c0-1.775-0.729-2.663-2.188-2.663C113.078,206.037,112.339,206.925,112.339,208.7z"/>
			<path d="M132.906,203.599c0.545,0,0.998,0.039,1.358,0.118l-0.303,3.771c-0.325-0.088-0.721-0.132-1.187-0.132
				c-1.283,0-2.283,0.329-2.999,0.989c-0.717,0.658-1.075,1.582-1.075,2.768v7.502h-4.021v-14.739h3.045l0.593,2.479h0.198
				c0.457-0.826,1.075-1.492,1.852-1.997C131.146,203.851,131.992,203.599,132.906,203.599z"/>
			<path d="M146.3,218.614l-0.778-2.004h-0.105c-0.677,0.853-1.374,1.443-2.089,1.773c-0.717,0.329-1.65,0.494-2.802,0.494
				c-1.415,0-2.529-0.404-3.342-1.213c-0.813-0.809-1.22-1.96-1.22-3.454c0-1.564,0.547-2.718,1.642-3.461
				c1.094-0.742,2.744-1.153,4.95-1.232l2.558-0.079v-0.646c0-1.493-0.765-2.24-2.294-2.24c-1.178,0-2.562,0.355-4.153,1.067
				l-1.332-2.716c1.696-0.888,3.577-1.332,5.643-1.332c1.978,0,3.494,0.432,4.548,1.293s1.582,2.171,1.582,3.928v9.822H146.3z
				 M145.114,211.785l-1.556,0.053c-1.169,0.035-2.039,0.246-2.61,0.633s-0.857,0.976-0.857,1.767c0,1.134,0.65,1.701,1.951,1.701
				c0.932,0,1.676-0.269,2.235-0.805c0.558-0.536,0.837-1.248,0.837-2.136V211.785z"/>
			<path d="M166.445,218.614h-4.021v-8.609c0-1.063-0.178-1.86-0.534-2.393c-0.355-0.531-0.916-0.797-1.681-0.797
				c-1.028,0-1.775,0.378-2.241,1.133c-0.466,0.757-0.699,2-0.699,3.731v6.935h-4.021v-14.739h3.072l0.541,1.886h0.224
				c0.396-0.677,0.967-1.207,1.714-1.589c0.747-0.383,1.604-0.573,2.571-0.573c2.206,0,3.7,0.721,4.482,2.162h0.356
				c0.396-0.686,0.978-1.218,1.747-1.596s1.637-0.566,2.604-0.566c1.67,0,2.933,0.428,3.791,1.285
				c0.856,0.856,1.285,2.23,1.285,4.119v9.611H171.6v-8.609c0-1.063-0.178-1.86-0.534-2.393c-0.355-0.531-0.916-0.797-1.681-0.797
				c-0.984,0-1.721,0.352-2.208,1.055c-0.488,0.703-0.732,1.818-0.732,3.348V218.614z"/>
		</g>
	</g>
</g>
<g id="scénář">
</g>
<g id="kulturní_program">
</g>
<g id="moderace">
</g>
<g id="režie">
</g>
<g id="produkce">
</g>
<g id="technické_zajištění">
</g>
<g id="catering">
</g>
<g id="hostesky">
</g>
<g id="foto">
</g>
<g id="video">
</g>
<g id="vizáž">
</g>
<g id="sportovní_zázemí">
</g>
<g id="grafika">
</g>
<g id="branding">
</g>
<g id="tisk">
</g>
<g id="dekorace">
</g>
<g id="dárky">
</g>
<g id="PR">
</g>
<g id="podpora_komunikace">
</g>
<g id="Layer_25">
</g>
</svg>
