<?xml version="1.0" encoding="utf-8"?>
<!-- Generator: Adobe Illustrator 16.0.0, SVG Export Plug-In . SVG Version: 6.00 Build 0)  -->
<!DOCTYPE svg PUBLIC "-//W3C//DTD SVG 1.0//EN" "http://www.w3.org/TR/2001/REC-SVG-20010904/DTD/svg10.dtd" [
	<!ENTITY st0 "fill:none;stroke:#E6007E;stroke-width:4.9167;stroke-linecap:round;stroke-linejoin:round;stroke-miterlimit:10;">
	<!ENTITY st1 "fill:none;stroke:#B2B2B2;stroke-width:4.5992;stroke-linecap:round;stroke-linejoin:round;stroke-miterlimit:10;">
	<!ENTITY st2 "fill:none;stroke:#E6007E;stroke-width:3.8857;stroke-linecap:round;stroke-linejoin:round;stroke-miterlimit:10;">
	
		<!ENTITY st3 "display:inline;fill:none;stroke:#878787;stroke-width:3.2851;stroke-linecap:round;stroke-linejoin:round;stroke-miterlimit:10;">
	<!ENTITY st4 "fill:none;stroke:#B2B2B2;stroke-width:3.596;stroke-linecap:round;stroke-linejoin:round;stroke-miterlimit:10;">
	<!ENTITY st5 "fill:none;stroke:#B2B2B2;stroke-width:4.5769;stroke-linecap:round;stroke-linejoin:round;stroke-miterlimit:10;">
	<!ENTITY st6 "fill:none;stroke:#C6C6C6;stroke-width:5;stroke-linecap:round;stroke-linejoin:round;stroke-miterlimit:10;">
	<!ENTITY st7 "fill:none;stroke:#E6007E;stroke-width:5;stroke-linecap:round;stroke-linejoin:round;stroke-miterlimit:10;">
	<!ENTITY st8 "fill:none;stroke:#B2B2B2;stroke-width:5.0005;stroke-linecap:round;stroke-linejoin:round;">
	<!ENTITY st9 "fill:none;stroke:#E6007E;stroke-width:4.5992;stroke-linecap:round;stroke-linejoin:round;stroke-miterlimit:10;">
	<!ENTITY st10 "fill:none;stroke:#878787;stroke-width:5.0901;stroke-linecap:round;stroke-linejoin:round;stroke-miterlimit:10;">
	<!ENTITY st11 "fill:#0B727F;stroke:#878787;stroke-width:5;stroke-linecap:round;stroke-linejoin:round;stroke-miterlimit:10;">
	<!ENTITY st12 "fill:none;stroke:#B2B2B2;stroke-width:3.5003;stroke-linecap:round;stroke-linejoin:round;stroke-miterlimit:10;">
	<!ENTITY st13 "fill:none;stroke:#B2B2B2;stroke-width:4;stroke-linecap:round;stroke-linejoin:round;stroke-miterlimit:10;">
	<!ENTITY st14 "fill:none;stroke:#B2B2B2;stroke-width:5;stroke-linecap:round;stroke-linejoin:round;stroke-miterlimit:10;">
	<!ENTITY st15 "fill:#FFFFFF;stroke:#B2B2B2;stroke-width:5;stroke-linecap:round;stroke-linejoin:round;stroke-miterlimit:10;">
	<!ENTITY st16 "fill:none;stroke:#B2B2B2;stroke-width:4.3152;stroke-linecap:round;stroke-linejoin:round;stroke-miterlimit:10;">
	<!ENTITY st17 "fill:none;stroke:#B2B2B2;stroke-width:5.0005;stroke-linecap:round;stroke-linejoin:round;stroke-miterlimit:10;">
	<!ENTITY st18 "fill:none;stroke:#878787;stroke-width:3.596;stroke-linecap:round;stroke-linejoin:round;stroke-miterlimit:10;">
	<!ENTITY st19 "fill:none;stroke:#E6007E;stroke-width:3.596;stroke-linecap:round;stroke-linejoin:round;stroke-miterlimit:10;">
	<!ENTITY st20 "fill:none;stroke:#878787;stroke-width:5.0005;stroke-linecap:round;stroke-linejoin:round;stroke-miterlimit:10;">
	<!ENTITY st21 "fill:none;stroke:#B2B2B2;stroke-width:5.0258;stroke-linecap:round;stroke-linejoin:round;stroke-miterlimit:10;">
	<!ENTITY st22 "fill:none;stroke:#9D9D9C;stroke-width:3.5706;stroke-linecap:round;stroke-linejoin:round;stroke-miterlimit:10;">
	
		<!ENTITY st23 "fill:#FFFFFF;stroke:#878787;stroke-width:5.0901;stroke-linecap:round;stroke-linejoin:round;stroke-miterlimit:10;">
	<!ENTITY st24 "fill:none;stroke:#E6007E;stroke-width:4.0727;stroke-linecap:round;stroke-linejoin:round;stroke-miterlimit:10;">
	
		<!ENTITY st25 "fill:#FFFFFF;stroke:#B2B2B2;stroke-width:5.0005;stroke-linecap:round;stroke-linejoin:round;stroke-miterlimit:10;">
	
		<!ENTITY st26 "fill:#FFFFFF;stroke:#B2B2B2;stroke-width:3.2851;stroke-linecap:round;stroke-linejoin:round;stroke-miterlimit:10;">
	<!ENTITY st27 "fill:none;stroke:#878787;stroke-width:4;stroke-linecap:round;stroke-linejoin:round;stroke-miterlimit:10;">
	<!ENTITY st28 "fill:none;stroke:#878787;stroke-width:5;stroke-linecap:round;stroke-linejoin:round;stroke-miterlimit:10;">
	<!ENTITY st29 "fill:none;stroke:#E6007E;stroke-width:5.0005;stroke-linecap:round;stroke-linejoin:round;stroke-miterlimit:10;">
	<!ENTITY st30 "fill:#FFFFFF;stroke:#878787;stroke-width:5;stroke-linecap:round;stroke-linejoin:round;stroke-miterlimit:10;">
	
		<!ENTITY st31 "display:none;fill:none;stroke:#878787;stroke-width:5;stroke-linecap:round;stroke-linejoin:round;stroke-miterlimit:10;">
	<!ENTITY st32 "display:none;">
	<!ENTITY st33 "fill:none;stroke:#878787;stroke-width:3.0132;stroke-linecap:round;stroke-linejoin:round;stroke-miterlimit:10;">
	
		<!ENTITY st34 "fill:none;stroke:#B2B2B2;stroke-width:5.0005;stroke-linecap:round;stroke-linejoin:round;stroke-dasharray:9.0425,9.0425;">
	<!ENTITY st35 "fill:none;stroke:#E6007E;stroke-width:4.5004;stroke-linecap:round;stroke-linejoin:round;stroke-miterlimit:10;">
	
		<!ENTITY st36 "fill:#FFFFFF;stroke:#E6007E;stroke-width:5.0005;stroke-linecap:round;stroke-linejoin:round;stroke-miterlimit:10;">
]>
<svg version="1.0" xmlns="http://www.w3.org/2000/svg" xmlns:xlink="http://www.w3.org/1999/xlink" x="0px" y="0px" width="240px"
	 height="240px" viewBox="0 0 240 240" style="enable-background:new 0 0 240 240;" xml:space="preserve">
<g id="pravítka" style="&st32;">
</g>
<g id="zjištění_očekávání">
</g>
<g id="prostory">
</g>
<g id="příběh">
</g>
<g id="program">
</g>
<g id="scénář">
</g>
<g id="kulturní_program">
</g>
<g id="moderace">
</g>
<g id="režie">
</g>
<g id="produkce">
</g>
<g id="technické_zajištění">
</g>
<g id="catering">
</g>
<g id="hostesky">
</g>
<g id="foto">
</g>
<g id="video">
</g>
<g id="vizáž">
</g>
<g id="sportovní_zázemí">
</g>
<g id="grafika">
</g>
<g id="branding">
</g>
<g id="tisk">
</g>
<g id="dekorace">
</g>
<g id="dárky">
	<g>
		<g>
			<path d="M97.152,207.84c0,3.174-0.902,5.604-2.709,7.291c-1.806,1.688-4.414,2.531-7.824,2.531h-5.458v-19.274h6.052
				c3.146,0,5.59,0.831,7.33,2.491C96.283,202.541,97.152,204.861,97.152,207.84z M92.908,207.945c0-4.139-1.828-6.209-5.484-6.209
				h-2.176v12.551h1.754C90.939,214.287,92.908,212.174,92.908,207.945z"/>
			<path d="M110.191,217.662l-0.777-2.004h-0.105c-0.678,0.853-1.374,1.443-2.09,1.773c-0.717,0.329-1.65,0.494-2.802,0.494
				c-1.415,0-2.529-0.404-3.342-1.213c-0.813-0.809-1.22-1.96-1.22-3.454c0-1.564,0.547-2.718,1.642-3.461
				c1.094-0.742,2.744-1.153,4.95-1.232l2.558-0.079v-0.646c0-1.493-0.765-2.24-2.294-2.24c-1.178,0-2.563,0.355-4.152,1.067
				l-1.332-2.716c1.696-0.888,3.577-1.332,5.643-1.332c1.978,0,3.494,0.432,4.549,1.293S113,206.083,113,207.84v9.822H110.191z
				 M109.005,210.833l-1.556,0.053c-1.169,0.035-2.039,0.246-2.61,0.633s-0.856,0.976-0.856,1.767c0,1.134,0.65,1.701,1.951,1.701
				c0.932,0,1.676-0.269,2.234-0.805c0.558-0.536,0.837-1.248,0.837-2.136V210.833z M104.535,201.301v-0.355
				c1.512-1.758,2.545-3.08,3.099-3.969h4.509v0.277c-0.457,0.457-1.237,1.136-2.34,2.037c-1.104,0.9-1.967,1.571-2.591,2.01
				H104.535z"/>
			<path d="M125.365,202.646c0.545,0,0.998,0.039,1.358,0.118l-0.304,3.771c-0.324-0.088-0.721-0.132-1.186-0.132
				c-1.283,0-2.283,0.329-3,0.989c-0.717,0.658-1.074,1.582-1.074,2.768v7.502h-4.021v-14.739h3.046l0.593,2.479h0.198
				c0.457-0.826,1.075-1.492,1.853-1.997C123.605,202.898,124.451,202.646,125.365,202.646z"/>
			<path d="M133.263,209.646l1.753-2.241l4.127-4.482h4.535l-5.854,6.394l6.209,8.346h-4.641l-4.244-5.973l-1.728,1.385v4.588H129.4
				v-20.514h4.021v9.149l-0.211,3.349H133.263z"/>
			<path d="M144.033,202.923h4.404l2.781,8.292c0.237,0.722,0.4,1.574,0.488,2.559h0.078c0.098-0.905,0.286-1.758,0.567-2.559
				l2.729-8.292h4.311l-6.236,16.624c-0.57,1.538-1.387,2.689-2.445,3.455c-1.059,0.764-2.296,1.146-3.711,1.146
				c-0.694,0-1.375-0.075-2.043-0.225v-3.189c0.482,0.113,1.01,0.171,1.582,0.171c0.711,0,1.333-0.218,1.865-0.652
				c0.531-0.436,0.947-1.093,1.246-1.972l0.236-0.725L144.033,202.923z"/>
		</g>
	</g>
	<g>
		<polyline style="&st17;" points="99.89,42.765 119.31,35.094 137.768,42.765 		"/>
		<polyline style="&st17;" points="94.376,71.292 74.719,78.964 75.438,157.116 		"/>
		<polyline style="&st17;" points="117.39,73.69 89.821,85.676 89.821,163.829 		"/>
		<polyline style="&st17;" points="120.986,73.93 148.556,85.676 148.556,163.109 		"/>
		<polyline style="&st17;" points="144.001,70.573 163.659,79.683 163.659,155.678 		"/>
		<polyline style="&st17;" points="62.972,59.786 48.108,66.737 75.438,79.683 		"/>
		<polyline style="&st17;" points="90.78,85.676 118.829,99.341 148.556,85.676 		"/>
		<polyline style="&st17;" points="163.659,79.683 189.55,66.737 176.125,60.024 		"/>
		<polyline style="&st17;" points="48.108,66.737 48.348,84.478 74.479,97.423 		"/>
		<polyline style="&st17;" points="90.541,104.615 118.829,118.04 148.077,105.334 		"/>
		<polyline style="&st17;" points="163.898,97.903 190.028,84.237 189.79,67.217 		"/>
		<polyline style="&st17;" points="52.663,87.354 52.663,145.608 118.589,179.172 186.433,146.088 185.954,87.594 		"/>
		<path style="&st29;" d="M128.179,66.258c0,3.972-3.221,7.192-7.192,7.192h-2.876c-3.973,0-7.192-3.221-7.192-7.192v-7.431
			c0-3.973,3.22-7.193,7.192-7.193h2.876c3.972,0,7.192,3.221,7.192,7.193V66.258z"/>
		<path style="&st29;" d="M126.979,54.991c0,0,30.446-39.076,48.426-14.385c17.98,24.692-24.691,30.926-48.186,30.446"/>
		<path style="&st29;" d="M129.138,60.985c0,0,30.094-25.447,36.678-13.187c6.953,12.944-36.918,16.54-36.918,16.54"/>
		<path style="&st29;" d="M111.866,55.231c0,0-30.445-39.077-48.426-14.385c-17.979,24.691,24.691,30.926,48.186,30.445"/>
		<path style="&st29;" d="M109.71,61.225c0,0-30.095-25.446-36.68-13.187c-6.952,12.947,36.918,16.541,36.918,16.541"/>
	</g>
</g>
<g id="PR">
</g>
<g id="podpora_komunikace">
</g>
<g id="Layer_25">
</g>
</svg>
