<?xml version="1.0" encoding="utf-8"?>
<!-- Generator: Adobe Illustrator 16.0.0, SVG Export Plug-In . SVG Version: 6.00 Build 0)  -->
<!DOCTYPE svg PUBLIC "-//W3C//DTD SVG 1.0//EN" "http://www.w3.org/TR/2001/REC-SVG-20010904/DTD/svg10.dtd" [
	<!ENTITY st0 "fill:none;stroke:#E6007E;stroke-width:4.9167;stroke-linecap:round;stroke-linejoin:round;stroke-miterlimit:10;">
	<!ENTITY st1 "fill:none;stroke:#B2B2B2;stroke-width:4.5992;stroke-linecap:round;stroke-linejoin:round;stroke-miterlimit:10;">
	<!ENTITY st2 "fill:none;stroke:#E6007E;stroke-width:3.8857;stroke-linecap:round;stroke-linejoin:round;stroke-miterlimit:10;">
	
		<!ENTITY st3 "display:inline;fill:none;stroke:#878787;stroke-width:3.2851;stroke-linecap:round;stroke-linejoin:round;stroke-miterlimit:10;">
	<!ENTITY st4 "fill:none;stroke:#B2B2B2;stroke-width:3.596;stroke-linecap:round;stroke-linejoin:round;stroke-miterlimit:10;">
	<!ENTITY st5 "fill:none;stroke:#B2B2B2;stroke-width:4.5769;stroke-linecap:round;stroke-linejoin:round;stroke-miterlimit:10;">
	<!ENTITY st6 "fill:none;stroke:#C6C6C6;stroke-width:5;stroke-linecap:round;stroke-linejoin:round;stroke-miterlimit:10;">
	<!ENTITY st7 "fill:none;stroke:#E6007E;stroke-width:5;stroke-linecap:round;stroke-linejoin:round;stroke-miterlimit:10;">
	<!ENTITY st8 "fill:none;stroke:#B2B2B2;stroke-width:5.0005;stroke-linecap:round;stroke-linejoin:round;">
	<!ENTITY st9 "fill:none;stroke:#E6007E;stroke-width:4.5992;stroke-linecap:round;stroke-linejoin:round;stroke-miterlimit:10;">
	<!ENTITY st10 "fill:none;stroke:#878787;stroke-width:5.0901;stroke-linecap:round;stroke-linejoin:round;stroke-miterlimit:10;">
	<!ENTITY st11 "fill:#0B727F;stroke:#878787;stroke-width:5;stroke-linecap:round;stroke-linejoin:round;stroke-miterlimit:10;">
	<!ENTITY st12 "fill:none;stroke:#B2B2B2;stroke-width:3.5003;stroke-linecap:round;stroke-linejoin:round;stroke-miterlimit:10;">
	<!ENTITY st13 "fill:none;stroke:#B2B2B2;stroke-width:4;stroke-linecap:round;stroke-linejoin:round;stroke-miterlimit:10;">
	<!ENTITY st14 "fill:none;stroke:#B2B2B2;stroke-width:5;stroke-linecap:round;stroke-linejoin:round;stroke-miterlimit:10;">
	<!ENTITY st15 "fill:#FFFFFF;stroke:#B2B2B2;stroke-width:5;stroke-linecap:round;stroke-linejoin:round;stroke-miterlimit:10;">
	<!ENTITY st16 "fill:none;stroke:#B2B2B2;stroke-width:4.3152;stroke-linecap:round;stroke-linejoin:round;stroke-miterlimit:10;">
	<!ENTITY st17 "fill:none;stroke:#B2B2B2;stroke-width:5.0005;stroke-linecap:round;stroke-linejoin:round;stroke-miterlimit:10;">
	<!ENTITY st18 "fill:none;stroke:#878787;stroke-width:3.596;stroke-linecap:round;stroke-linejoin:round;stroke-miterlimit:10;">
	<!ENTITY st19 "fill:none;stroke:#E6007E;stroke-width:3.596;stroke-linecap:round;stroke-linejoin:round;stroke-miterlimit:10;">
	<!ENTITY st20 "fill:none;stroke:#878787;stroke-width:5.0005;stroke-linecap:round;stroke-linejoin:round;stroke-miterlimit:10;">
	<!ENTITY st21 "fill:none;stroke:#B2B2B2;stroke-width:5.0258;stroke-linecap:round;stroke-linejoin:round;stroke-miterlimit:10;">
	<!ENTITY st22 "fill:none;stroke:#9D9D9C;stroke-width:3.5706;stroke-linecap:round;stroke-linejoin:round;stroke-miterlimit:10;">
	
		<!ENTITY st23 "fill:#FFFFFF;stroke:#878787;stroke-width:5.0901;stroke-linecap:round;stroke-linejoin:round;stroke-miterlimit:10;">
	<!ENTITY st24 "fill:none;stroke:#E6007E;stroke-width:4.0727;stroke-linecap:round;stroke-linejoin:round;stroke-miterlimit:10;">
	
		<!ENTITY st25 "fill:#FFFFFF;stroke:#B2B2B2;stroke-width:5.0005;stroke-linecap:round;stroke-linejoin:round;stroke-miterlimit:10;">
	
		<!ENTITY st26 "fill:#FFFFFF;stroke:#B2B2B2;stroke-width:3.2851;stroke-linecap:round;stroke-linejoin:round;stroke-miterlimit:10;">
	<!ENTITY st27 "fill:none;stroke:#878787;stroke-width:4;stroke-linecap:round;stroke-linejoin:round;stroke-miterlimit:10;">
	<!ENTITY st28 "fill:none;stroke:#878787;stroke-width:5;stroke-linecap:round;stroke-linejoin:round;stroke-miterlimit:10;">
	<!ENTITY st29 "fill:none;stroke:#E6007E;stroke-width:5.0005;stroke-linecap:round;stroke-linejoin:round;stroke-miterlimit:10;">
	<!ENTITY st30 "fill:#FFFFFF;stroke:#878787;stroke-width:5;stroke-linecap:round;stroke-linejoin:round;stroke-miterlimit:10;">
	
		<!ENTITY st31 "display:none;fill:none;stroke:#878787;stroke-width:5;stroke-linecap:round;stroke-linejoin:round;stroke-miterlimit:10;">
	<!ENTITY st32 "display:none;">
	<!ENTITY st33 "fill:none;stroke:#878787;stroke-width:3.0132;stroke-linecap:round;stroke-linejoin:round;stroke-miterlimit:10;">
	
		<!ENTITY st34 "fill:none;stroke:#B2B2B2;stroke-width:5.0005;stroke-linecap:round;stroke-linejoin:round;stroke-dasharray:9.0425,9.0425;">
	<!ENTITY st35 "fill:none;stroke:#E6007E;stroke-width:4.5004;stroke-linecap:round;stroke-linejoin:round;stroke-miterlimit:10;">
	
		<!ENTITY st36 "fill:#FFFFFF;stroke:#E6007E;stroke-width:5.0005;stroke-linecap:round;stroke-linejoin:round;stroke-miterlimit:10;">
]>
<svg version="1.0" xmlns="http://www.w3.org/2000/svg" xmlns:xlink="http://www.w3.org/1999/xlink" x="0px" y="0px" width="240px"
	 height="240px" viewBox="0 0 240 240" style="enable-background:new 0 0 240 240;" xml:space="preserve">
<g id="pravítka" style="&st32;">
</g>
<g id="zjištění_očekávání">
</g>
<g id="prostory">
</g>
<g id="příběh">
</g>
<g id="program">
</g>
<g id="scénář">
</g>
<g id="kulturní_program">
</g>
<g id="moderace">
</g>
<g id="režie">
</g>
<g id="produkce">
</g>
<g id="technické_zajištění">
</g>
<g id="catering">
</g>
<g id="hostesky">
</g>
<g id="foto">
</g>
<g id="video">
</g>
<g id="vizáž">
	<g>
		<g>
			<path d="M99.16,199.188h4.126l-6.552,19.273h-4.457l-6.539-19.273h4.127l3.625,11.469c0.203,0.678,0.411,1.467,0.627,2.367
				c0.215,0.9,0.35,1.527,0.402,1.879c0.096-0.809,0.426-2.225,0.988-4.246L99.16,199.188z"/>
			<path d="M105.225,199.912c0-1.31,0.729-1.965,2.188-1.965s2.189,0.655,2.189,1.965c0,0.624-0.184,1.109-0.548,1.457
				s-0.911,0.521-1.642,0.521C105.953,201.89,105.225,201.23,105.225,199.912z M109.416,218.461h-4.021v-14.738h4.021V218.461z"/>
			<path d="M123.893,218.461h-11.642v-2.373l6.829-9.294h-6.42v-3.071h10.994v2.609l-6.645,9.058h6.883V218.461z"/>
			<path d="M136.166,218.461l-0.777-2.004h-0.105c-0.678,0.854-1.374,1.443-2.09,1.773c-0.717,0.33-1.65,0.494-2.802,0.494
				c-1.415,0-2.529-0.404-3.342-1.213c-0.813-0.809-1.22-1.959-1.22-3.453c0-1.564,0.547-2.719,1.642-3.461
				c1.094-0.742,2.744-1.154,4.95-1.232l2.558-0.08v-0.646c0-1.494-0.765-2.241-2.294-2.241c-1.178,0-2.563,0.355-4.152,1.068
				l-1.332-2.717c1.696-0.887,3.577-1.331,5.643-1.331c1.978,0,3.494,0.431,4.549,1.292s1.582,2.171,1.582,3.929v9.821H136.166z
				 M134.979,211.633l-1.556,0.053c-1.169,0.035-2.039,0.246-2.61,0.633s-0.856,0.975-0.856,1.766c0,1.135,0.65,1.701,1.951,1.701
				c0.932,0,1.676-0.268,2.234-0.805c0.558-0.535,0.837-1.248,0.837-2.135V211.633z M130.51,202.101v-0.356
				c1.512-1.758,2.545-3.08,3.099-3.968h4.509v0.276c-0.457,0.457-1.237,1.137-2.34,2.037c-1.104,0.901-1.967,1.571-2.591,2.011
				H130.51z"/>
			<path d="M153.371,218.461h-11.642v-2.373l6.829-9.294h-6.42v-3.071h10.994v2.609l-6.645,9.058h6.883V218.461z M153.555,197.776
				v0.356c-0.738,0.738-1.416,1.475-2.037,2.207c-0.619,0.734-1.064,1.321-1.338,1.761h-4.706c-0.255-0.413-0.62-0.907-1.095-1.483
				c-0.475-0.575-1.234-1.404-2.28-2.484v-0.356h2.677c1.291,0.817,2.298,1.591,3.019,2.32c0.738-0.765,1.767-1.538,3.085-2.32
				H153.555z"/>
		</g>
	</g>
	<g>
		<g>
			<g>
				<path style="&st29;" d="M121.316,84.511c0,0-13.068-25.969-38.866-4.127S38.299,99.203,38.299,99.203
					c19.703,8.563,55.249-2.672,53.783-1.792c0,0,18.325-3.997,28.893,11.651"/>
				<path style="&st29;" d="M121.367,142.219c-1.43-0.311-45.281,2.66-83.117-42.744"/>
				<path style="&st29;" d="M121.652,84.511c0,0,13.07-25.969,38.868-4.127c25.797,21.842,43.388,19.07,43.388,19.07
					c-19.702,8.563-50.463-2.266-53.02-2.044c0,0-21.479-4.249-28.893,11.651"/>
				<path style="&st29;" d="M120.77,142.254c0.953-0.555,45.951,4.52,83.949-42.779"/>
			</g>
		</g>
		<path style="&st4;" d="M174.795,109.824c-3.471-0.866-7.756,2.979-10.442,4.725c-3.362,2.182-5.953,2.9-9.795,3.756
			c-2.403,0.533-6.534,1.596-8.265,3.458c-2.094,2.252-0.93,4.389,1.687,5.133c6.943,1.977,16.509-3.598,22.132-7.131
			c2.404-1.51,5.51-3.48,6.816-6.105c1.229-2.469,0.125-2.847-1.94-3.586"/>
		<path style="&st4;" d="M136.772,124.266c-2.185-0.986-5.664,0.92-6.855,2.813c-1.687,2.678,0.286,4.617,2.765,5.682
			c6.178,2.652,10.141-7.273,4.729-8.305"/>
	</g>
</g>
<g id="sportovní_zázemí">
</g>
<g id="grafika">
</g>
<g id="branding">
</g>
<g id="tisk">
</g>
<g id="dekorace">
</g>
<g id="dárky">
</g>
<g id="PR">
</g>
<g id="podpora_komunikace">
</g>
<g id="Layer_25">
</g>
</svg>
