<?xml version="1.0" encoding="utf-8"?>
<!-- Generator: Adobe Illustrator 16.0.0, SVG Export Plug-In . SVG Version: 6.00 Build 0)  -->
<!DOCTYPE svg PUBLIC "-//W3C//DTD SVG 1.0//EN" "http://www.w3.org/TR/2001/REC-SVG-20010904/DTD/svg10.dtd" [
	<!ENTITY st0 "fill:none;stroke:#E6007E;stroke-width:4.9167;stroke-linecap:round;stroke-linejoin:round;stroke-miterlimit:10;">
	<!ENTITY st1 "fill:none;stroke:#B2B2B2;stroke-width:4.5992;stroke-linecap:round;stroke-linejoin:round;stroke-miterlimit:10;">
	<!ENTITY st2 "fill:none;stroke:#E6007E;stroke-width:3.8857;stroke-linecap:round;stroke-linejoin:round;stroke-miterlimit:10;">
	
		<!ENTITY st3 "display:inline;fill:none;stroke:#878787;stroke-width:3.2851;stroke-linecap:round;stroke-linejoin:round;stroke-miterlimit:10;">
	<!ENTITY st4 "fill:none;stroke:#B2B2B2;stroke-width:3.596;stroke-linecap:round;stroke-linejoin:round;stroke-miterlimit:10;">
	<!ENTITY st5 "fill:none;stroke:#B2B2B2;stroke-width:4.5769;stroke-linecap:round;stroke-linejoin:round;stroke-miterlimit:10;">
	<!ENTITY st6 "fill:none;stroke:#C6C6C6;stroke-width:5;stroke-linecap:round;stroke-linejoin:round;stroke-miterlimit:10;">
	<!ENTITY st7 "fill:none;stroke:#E6007E;stroke-width:5;stroke-linecap:round;stroke-linejoin:round;stroke-miterlimit:10;">
	<!ENTITY st8 "fill:none;stroke:#B2B2B2;stroke-width:5.0005;stroke-linecap:round;stroke-linejoin:round;">
	<!ENTITY st9 "fill:none;stroke:#E6007E;stroke-width:4.5992;stroke-linecap:round;stroke-linejoin:round;stroke-miterlimit:10;">
	<!ENTITY st10 "fill:none;stroke:#878787;stroke-width:5.0901;stroke-linecap:round;stroke-linejoin:round;stroke-miterlimit:10;">
	<!ENTITY st11 "fill:#0B727F;stroke:#878787;stroke-width:5;stroke-linecap:round;stroke-linejoin:round;stroke-miterlimit:10;">
	<!ENTITY st12 "fill:none;stroke:#B2B2B2;stroke-width:3.5003;stroke-linecap:round;stroke-linejoin:round;stroke-miterlimit:10;">
	<!ENTITY st13 "fill:none;stroke:#B2B2B2;stroke-width:4;stroke-linecap:round;stroke-linejoin:round;stroke-miterlimit:10;">
	<!ENTITY st14 "fill:none;stroke:#B2B2B2;stroke-width:5;stroke-linecap:round;stroke-linejoin:round;stroke-miterlimit:10;">
	<!ENTITY st15 "fill:#FFFFFF;stroke:#B2B2B2;stroke-width:5;stroke-linecap:round;stroke-linejoin:round;stroke-miterlimit:10;">
	<!ENTITY st16 "fill:none;stroke:#B2B2B2;stroke-width:4.3152;stroke-linecap:round;stroke-linejoin:round;stroke-miterlimit:10;">
	<!ENTITY st17 "fill:none;stroke:#B2B2B2;stroke-width:5.0005;stroke-linecap:round;stroke-linejoin:round;stroke-miterlimit:10;">
	<!ENTITY st18 "fill:none;stroke:#878787;stroke-width:3.596;stroke-linecap:round;stroke-linejoin:round;stroke-miterlimit:10;">
	<!ENTITY st19 "fill:none;stroke:#E6007E;stroke-width:3.596;stroke-linecap:round;stroke-linejoin:round;stroke-miterlimit:10;">
	<!ENTITY st20 "fill:none;stroke:#878787;stroke-width:5.0005;stroke-linecap:round;stroke-linejoin:round;stroke-miterlimit:10;">
	<!ENTITY st21 "fill:none;stroke:#B2B2B2;stroke-width:5.0258;stroke-linecap:round;stroke-linejoin:round;stroke-miterlimit:10;">
	<!ENTITY st22 "fill:none;stroke:#9D9D9C;stroke-width:3.5706;stroke-linecap:round;stroke-linejoin:round;stroke-miterlimit:10;">
	
		<!ENTITY st23 "fill:#FFFFFF;stroke:#878787;stroke-width:5.0901;stroke-linecap:round;stroke-linejoin:round;stroke-miterlimit:10;">
	<!ENTITY st24 "fill:none;stroke:#E6007E;stroke-width:4.0727;stroke-linecap:round;stroke-linejoin:round;stroke-miterlimit:10;">
	
		<!ENTITY st25 "fill:#FFFFFF;stroke:#B2B2B2;stroke-width:5.0005;stroke-linecap:round;stroke-linejoin:round;stroke-miterlimit:10;">
	
		<!ENTITY st26 "fill:#FFFFFF;stroke:#B2B2B2;stroke-width:3.2851;stroke-linecap:round;stroke-linejoin:round;stroke-miterlimit:10;">
	<!ENTITY st27 "fill:none;stroke:#878787;stroke-width:4;stroke-linecap:round;stroke-linejoin:round;stroke-miterlimit:10;">
	<!ENTITY st28 "fill:none;stroke:#878787;stroke-width:5;stroke-linecap:round;stroke-linejoin:round;stroke-miterlimit:10;">
	<!ENTITY st29 "fill:none;stroke:#E6007E;stroke-width:5.0005;stroke-linecap:round;stroke-linejoin:round;stroke-miterlimit:10;">
	<!ENTITY st30 "fill:#FFFFFF;stroke:#878787;stroke-width:5;stroke-linecap:round;stroke-linejoin:round;stroke-miterlimit:10;">
	
		<!ENTITY st31 "display:none;fill:none;stroke:#878787;stroke-width:5;stroke-linecap:round;stroke-linejoin:round;stroke-miterlimit:10;">
	<!ENTITY st32 "display:none;">
	<!ENTITY st33 "fill:none;stroke:#878787;stroke-width:3.0132;stroke-linecap:round;stroke-linejoin:round;stroke-miterlimit:10;">
	
		<!ENTITY st34 "fill:none;stroke:#B2B2B2;stroke-width:5.0005;stroke-linecap:round;stroke-linejoin:round;stroke-dasharray:9.0425,9.0425;">
	<!ENTITY st35 "fill:none;stroke:#E6007E;stroke-width:4.5004;stroke-linecap:round;stroke-linejoin:round;stroke-miterlimit:10;">
	
		<!ENTITY st36 "fill:#FFFFFF;stroke:#E6007E;stroke-width:5.0005;stroke-linecap:round;stroke-linejoin:round;stroke-miterlimit:10;">
]>
<svg version="1.0" xmlns="http://www.w3.org/2000/svg" xmlns:xlink="http://www.w3.org/1999/xlink" x="0px" y="0px" width="240px"
	 height="240px" viewBox="0 0 240 240" style="enable-background:new 0 0 240 240;" xml:space="preserve">
<g id="pravítka" style="&st32;">
</g>
<g id="zjištění_očekávání">
</g>
<g id="prostory">
</g>
<g id="příběh">
</g>
<g id="program">
</g>
<g id="scénář">
	<g>
		
			<rect x="81.739" y="40.071" transform="matrix(0.8523 -0.523 0.523 0.8523 -36.3365 77.6438)" style="&st14;" width="75.188" height="126.201"/>
		<line style="&st14;" x1="49.537" y1="87.181" x2="60.184" y2="80.649"/>
		<line style="&st14;" x1="55.512" y1="96.917" x2="66.158" y2="90.386"/>
		<line style="&st14;" x1="61.488" y1="106.653" x2="72.134" y2="100.122"/>
		<line style="&st14;" x1="67.464" y1="116.391" x2="78.108" y2="109.857"/>
		<line style="&st14;" x1="73.566" y1="126.354" x2="84.212" y2="119.82"/>
		<line style="&st14;" x1="79.542" y1="136.091" x2="90.188" y2="129.559"/>
		<line style="&st14;" x1="85.519" y1="143.826" x2="96.163" y2="137.296"/>
		<line style="&st14;" x1="91.493" y1="153.562" x2="102.139" y2="147.032"/>
		<line style="&st14;" x1="97.468" y1="163.3" x2="108.114" y2="156.768"/>
		<line style="&st14;" x1="103.765" y1="173.558" x2="114.409" y2="167.024"/>
		<line style="&st14;" x1="124.442" y1="39.166" x2="135.089" y2="32.635"/>
		<line style="&st14;" x1="130.417" y1="48.902" x2="141.063" y2="42.37"/>
		<line style="&st14;" x1="136.393" y1="58.639" x2="147.039" y2="52.107"/>
		<line style="&st14;" x1="142.367" y1="68.376" x2="153.013" y2="61.844"/>
		<line style="&st14;" x1="148.472" y1="78.339" x2="159.117" y2="71.806"/>
		<line style="&st14;" x1="154.447" y1="88.074" x2="165.093" y2="81.544"/>
		<line style="&st14;" x1="160.423" y1="97.812" x2="171.068" y2="91.28"/>
		<line style="&st14;" x1="166.398" y1="107.548" x2="177.043" y2="101.018"/>
		<line style="&st14;" x1="172.373" y1="117.284" x2="183.021" y2="110.753"/>
		<line style="&st14;" x1="179.96" y1="128.988" x2="189.313" y2="123.011"/>
		<line style="&st14;" x1="147.011" y1="75.915" x2="157.656" y2="69.386"/>
		<line style="&st14;" x1="151.708" y1="83.572" x2="162.354" y2="77.04"/>
		<line style="&st14;" x1="66.505" y1="88.954" x2="130.593" y2="49.635"/>
		<line style="&st14;" x1="104.083" y1="150.202" x2="168.17" y2="110.88"/>
		<line style="&st14;" x1="88.413" y1="94.035" x2="124.896" y2="71.254"/>
		<line style="&st14;" x1="95.037" y1="104.802" x2="131.65" y2="82.741"/>
		<line style="&st14;" x1="101.794" y1="116.4" x2="123.12" y2="104.099"/>
		<line style="&st14;" x1="108.818" y1="127.415" x2="123.12" y2="118.53"/>
		<path style="&st14;" d="M54.291,69.049l-6.974,4.077c0,0-4.734,2.855-1.53,8.855c2.452,4.596,59.121,97.807,59.121,97.807
			s2.248,4.301,7.659,1.901c4.857-2.155,7.723-5.073,7.723-5.073"/>
		<path style="&st14;" d="M117.67,30.049l6.842-4.296c0,0,4.723-2.875,8.559,2.74c2.938,4.302,59.351,97.668,59.351,97.668
			s2.771,3.981-1.858,7.668c-4.157,3.311-8.072,4.5-8.072,4.5"/>
		<g>
			<g>
				<path style="&st30;" d="M169.327,29.673c-0.644,0.95-32.328,56.376-32.328,56.376l-6.039,30.252l24.103-21.181l31.96-55.351"/>
				
					<ellipse transform="matrix(0.8583 0.5131 -0.5131 0.8583 42.949 -86.5507)" style="&st30;" cx="178.209" cy="34.501" rx="10.268" ry="6.213"/>
				<path style="&st30;" d="M146.494,101.021"/>
				<path style="&st30;" d="M136.277,95.591"/>
				<path style="&st30;" d="M155.063,95.12"/>
				<path style="&st30;" d="M136.999,86.049"/>
			</g>
			<path style="&st30;" d="M138.93,83.519c-0.838-2.832,2.018,14.503,18.063,9.072"/>
			<path style="&st30;" d="M134.14,98.549c0,0,2.697,5.784,8.939,5.838"/>
		</g>
	</g>
	<g>
		<g>
			<path d="M87.209,211.892c-0.016,1.74-0.654,3.105-1.914,4.096c-1.262,0.991-3.009,1.477-5.241,1.457
				c-2.057-0.019-3.872-0.421-5.447-1.208l0.033-3.796c1.296,0.591,2.393,1.01,3.292,1.255c0.898,0.245,1.721,0.371,2.469,0.377
				c0.896,0.008,1.585-0.157,2.067-0.495c0.481-0.339,0.726-0.846,0.731-1.523c0.004-0.378-0.099-0.715-0.307-1.011
				c-0.209-0.296-0.516-0.583-0.922-0.859c-0.407-0.276-1.236-0.718-2.487-1.327c-1.173-0.564-2.052-1.104-2.636-1.619
				s-1.049-1.112-1.395-1.792c-0.346-0.68-0.514-1.472-0.506-2.377c0.015-1.705,0.604-3.04,1.77-4.005
				c1.163-0.965,2.765-1.439,4.804-1.421c1.002,0.009,1.957,0.136,2.864,0.381c0.908,0.245,1.856,0.588,2.846,1.027l-1.347,3.165
				c-1.024-0.431-1.872-0.732-2.543-0.905c-0.671-0.173-1.331-0.263-1.981-0.268c-0.773-0.007-1.369,0.168-1.785,0.524
				s-0.627,0.825-0.632,1.405c-0.003,0.36,0.077,0.676,0.242,0.945s0.428,0.531,0.79,0.784c0.363,0.254,1.223,0.712,2.579,1.375
				c1.794,0.877,3.021,1.752,3.682,2.624S87.221,210.635,87.209,211.892z"/>
			<path d="M96.322,217.589c-4.588-0.041-6.86-2.579-6.815-7.614c0.022-2.505,0.663-4.413,1.923-5.726
				c1.26-1.311,3.054-1.957,5.383-1.936c1.705,0.015,3.231,0.362,4.579,1.042l-1.214,3.101c-0.631-0.26-1.218-0.474-1.762-0.642
				c-0.543-0.167-1.087-0.253-1.632-0.258c-2.092-0.019-3.151,1.458-3.177,4.428c-0.025,2.883,1.008,4.333,3.1,4.352
				c0.773,0.007,1.49-0.09,2.15-0.291c0.662-0.2,1.324-0.518,1.986-0.951l-0.029,3.44c-0.654,0.408-1.314,0.688-1.979,0.84
				C98.17,217.526,97.332,217.598,96.322,217.589z"/>
			<path d="M110.889,217.718c-2.373-0.021-4.221-0.692-5.546-2.014c-1.324-1.321-1.976-3.181-1.954-5.581
				c0.021-2.47,0.655-4.374,1.902-5.712c1.246-1.338,2.96-1.998,5.14-1.979c2.083,0.019,3.699,0.626,4.849,1.823
				c1.15,1.197,1.715,2.841,1.697,4.933l-0.018,1.951l-9.505-0.084c0.034,1.143,0.364,2.038,0.991,2.685
				c0.627,0.646,1.512,0.976,2.654,0.985c0.889,0.008,1.729-0.077,2.521-0.254c0.792-0.178,1.622-0.464,2.486-0.861l-0.027,3.111
				c-0.706,0.345-1.46,0.6-2.262,0.765C113.017,217.65,112.041,217.728,110.889,217.718z M110.432,205.294
				c-0.852-0.008-1.522,0.257-2.011,0.792c-0.488,0.537-0.772,1.301-0.851,2.293l5.643,0.05c-0.01-0.993-0.262-1.762-0.758-2.308
				C111.959,205.578,111.285,205.302,110.432,205.294z M108.148,201.069l0.004-0.356c1.527-1.745,2.571-3.058,3.133-3.941
				l4.508,0.04l-0.002,0.277c-0.461,0.453-1.248,1.125-2.357,2.017c-1.111,0.891-1.98,1.553-2.608,1.987L108.148,201.069z"/>
			<path d="M133.777,217.656l-4.021-0.036l0.076-8.608c0.01-1.063-0.172-1.862-0.545-2.398c-0.374-0.535-0.974-0.806-1.8-0.813
				c-1.125-0.01-1.94,0.358-2.448,1.106c-0.508,0.747-0.77,1.991-0.785,3.731l-0.061,6.934l-4.021-0.036l0.131-14.739l3.071,0.027
				l0.524,1.89l0.224,0.002c0.454-0.708,1.077-1.24,1.866-1.598s1.686-0.533,2.688-0.524c1.714,0.016,3.011,0.491,3.891,1.426
				c0.879,0.935,1.311,2.277,1.296,4.026L133.777,217.656z"/>
			<path d="M147.277,217.776l-0.761-2.011l-0.105-0.001c-0.685,0.846-1.386,1.431-2.104,1.755c-0.721,0.323-1.655,0.479-2.807,0.469
				c-1.415-0.013-2.525-0.427-3.331-1.242c-0.806-0.816-1.202-1.971-1.188-3.464c0.014-1.564,0.57-2.713,1.672-3.447
				c1.1-0.732,2.754-1.129,4.961-1.188l2.559-0.057l0.005-0.646c0.013-1.494-0.745-2.248-2.274-2.261
				c-1.178-0.011-2.564,0.333-4.162,1.031l-1.307-2.728c1.703-0.873,3.588-1.3,5.654-1.282c1.977,0.018,3.489,0.462,4.536,1.333
				c1.048,0.871,1.563,2.185,1.548,3.942l-0.087,9.821L147.277,217.776z M146.15,210.937l-1.557,0.039
				c-1.168,0.025-2.041,0.228-2.615,0.61c-0.574,0.381-0.865,0.968-0.873,1.759c-0.01,1.134,0.636,1.706,1.937,1.718
				c0.932,0.008,1.679-0.253,2.242-0.784c0.562-0.531,0.848-1.241,0.855-2.128L146.15,210.937z M141.766,201.366l0.003-0.356
				c1.527-1.744,2.571-3.058,3.134-3.941l4.508,0.04l-0.002,0.277c-0.461,0.453-1.248,1.125-2.357,2.017
				c-1.111,0.891-1.98,1.553-2.609,1.987L141.766,201.366z"/>
			<path d="M164.848,197.245l-0.003,0.356c-0.745,0.732-1.431,1.462-2.057,2.19c-0.626,0.729-1.077,1.311-1.353,1.748l-4.707-0.042
				c-0.252-0.415-0.611-0.913-1.081-1.493c-0.47-0.58-1.223-1.415-2.259-2.505l0.003-0.356l2.677,0.024
				c1.284,0.829,2.283,1.611,2.998,2.347c0.745-0.758,1.78-1.522,3.105-2.293L164.848,197.245z M162.582,202.894
				c0.545,0.005,0.998,0.048,1.357,0.131l-0.336,3.768c-0.324-0.09-0.721-0.138-1.186-0.142c-1.283-0.011-2.286,0.31-3.008,0.962
				c-0.723,0.653-1.088,1.572-1.1,2.759l-0.065,7.501l-4.021-0.036l0.129-14.739l3.046,0.027l0.571,2.483l0.198,0.002
				c0.464-0.822,1.088-1.482,1.87-1.981C160.821,203.132,161.669,202.886,162.582,202.894z"/>
		</g>
	</g>
</g>
<g id="kulturní_program">
</g>
<g id="moderace">
</g>
<g id="režie">
</g>
<g id="produkce">
</g>
<g id="technické_zajištění">
</g>
<g id="catering">
</g>
<g id="hostesky">
</g>
<g id="foto">
</g>
<g id="video">
</g>
<g id="vizáž">
</g>
<g id="sportovní_zázemí">
</g>
<g id="grafika">
</g>
<g id="branding">
</g>
<g id="tisk">
</g>
<g id="dekorace">
</g>
<g id="dárky">
</g>
<g id="PR">
</g>
<g id="podpora_komunikace">
</g>
<g id="Layer_25">
</g>
</svg>
