<?xml version="1.0" encoding="utf-8"?>
<!-- Generator: Adobe Illustrator 16.0.0, SVG Export Plug-In . SVG Version: 6.00 Build 0)  -->
<!DOCTYPE svg PUBLIC "-//W3C//DTD SVG 1.0//EN" "http://www.w3.org/TR/2001/REC-SVG-20010904/DTD/svg10.dtd" [
	<!ENTITY st0 "fill:none;stroke:#E6007E;stroke-width:4.9167;stroke-linecap:round;stroke-linejoin:round;stroke-miterlimit:10;">
	<!ENTITY st1 "fill:none;stroke:#B2B2B2;stroke-width:4.5992;stroke-linecap:round;stroke-linejoin:round;stroke-miterlimit:10;">
	<!ENTITY st2 "fill:none;stroke:#E6007E;stroke-width:3.8857;stroke-linecap:round;stroke-linejoin:round;stroke-miterlimit:10;">
	
		<!ENTITY st3 "display:inline;fill:none;stroke:#878787;stroke-width:3.2851;stroke-linecap:round;stroke-linejoin:round;stroke-miterlimit:10;">
	<!ENTITY st4 "fill:none;stroke:#B2B2B2;stroke-width:3.596;stroke-linecap:round;stroke-linejoin:round;stroke-miterlimit:10;">
	<!ENTITY st5 "fill:none;stroke:#B2B2B2;stroke-width:4.5769;stroke-linecap:round;stroke-linejoin:round;stroke-miterlimit:10;">
	<!ENTITY st6 "fill:none;stroke:#C6C6C6;stroke-width:5;stroke-linecap:round;stroke-linejoin:round;stroke-miterlimit:10;">
	<!ENTITY st7 "fill:none;stroke:#E6007E;stroke-width:5;stroke-linecap:round;stroke-linejoin:round;stroke-miterlimit:10;">
	<!ENTITY st8 "fill:none;stroke:#B2B2B2;stroke-width:5.0005;stroke-linecap:round;stroke-linejoin:round;">
	<!ENTITY st9 "fill:none;stroke:#E6007E;stroke-width:4.5992;stroke-linecap:round;stroke-linejoin:round;stroke-miterlimit:10;">
	<!ENTITY st10 "fill:none;stroke:#878787;stroke-width:5.0901;stroke-linecap:round;stroke-linejoin:round;stroke-miterlimit:10;">
	<!ENTITY st11 "fill:#0B727F;stroke:#878787;stroke-width:5;stroke-linecap:round;stroke-linejoin:round;stroke-miterlimit:10;">
	<!ENTITY st12 "fill:none;stroke:#B2B2B2;stroke-width:3.5003;stroke-linecap:round;stroke-linejoin:round;stroke-miterlimit:10;">
	<!ENTITY st13 "fill:none;stroke:#B2B2B2;stroke-width:4;stroke-linecap:round;stroke-linejoin:round;stroke-miterlimit:10;">
	<!ENTITY st14 "fill:none;stroke:#B2B2B2;stroke-width:5;stroke-linecap:round;stroke-linejoin:round;stroke-miterlimit:10;">
	<!ENTITY st15 "fill:#FFFFFF;stroke:#B2B2B2;stroke-width:5;stroke-linecap:round;stroke-linejoin:round;stroke-miterlimit:10;">
	<!ENTITY st16 "fill:none;stroke:#B2B2B2;stroke-width:4.3152;stroke-linecap:round;stroke-linejoin:round;stroke-miterlimit:10;">
	<!ENTITY st17 "fill:none;stroke:#B2B2B2;stroke-width:5.0005;stroke-linecap:round;stroke-linejoin:round;stroke-miterlimit:10;">
	<!ENTITY st18 "fill:none;stroke:#878787;stroke-width:3.596;stroke-linecap:round;stroke-linejoin:round;stroke-miterlimit:10;">
	<!ENTITY st19 "fill:none;stroke:#E6007E;stroke-width:3.596;stroke-linecap:round;stroke-linejoin:round;stroke-miterlimit:10;">
	<!ENTITY st20 "fill:none;stroke:#878787;stroke-width:5.0005;stroke-linecap:round;stroke-linejoin:round;stroke-miterlimit:10;">
	<!ENTITY st21 "fill:none;stroke:#B2B2B2;stroke-width:5.0258;stroke-linecap:round;stroke-linejoin:round;stroke-miterlimit:10;">
	<!ENTITY st22 "fill:none;stroke:#9D9D9C;stroke-width:3.5706;stroke-linecap:round;stroke-linejoin:round;stroke-miterlimit:10;">
	
		<!ENTITY st23 "fill:#FFFFFF;stroke:#878787;stroke-width:5.0901;stroke-linecap:round;stroke-linejoin:round;stroke-miterlimit:10;">
	<!ENTITY st24 "fill:none;stroke:#E6007E;stroke-width:4.0727;stroke-linecap:round;stroke-linejoin:round;stroke-miterlimit:10;">
	
		<!ENTITY st25 "fill:#FFFFFF;stroke:#B2B2B2;stroke-width:5.0005;stroke-linecap:round;stroke-linejoin:round;stroke-miterlimit:10;">
	
		<!ENTITY st26 "fill:#FFFFFF;stroke:#B2B2B2;stroke-width:3.2851;stroke-linecap:round;stroke-linejoin:round;stroke-miterlimit:10;">
	<!ENTITY st27 "fill:none;stroke:#878787;stroke-width:4;stroke-linecap:round;stroke-linejoin:round;stroke-miterlimit:10;">
	<!ENTITY st28 "fill:none;stroke:#878787;stroke-width:5;stroke-linecap:round;stroke-linejoin:round;stroke-miterlimit:10;">
	<!ENTITY st29 "fill:none;stroke:#E6007E;stroke-width:5.0005;stroke-linecap:round;stroke-linejoin:round;stroke-miterlimit:10;">
	<!ENTITY st30 "fill:#FFFFFF;stroke:#878787;stroke-width:5;stroke-linecap:round;stroke-linejoin:round;stroke-miterlimit:10;">
	
		<!ENTITY st31 "display:none;fill:none;stroke:#878787;stroke-width:5;stroke-linecap:round;stroke-linejoin:round;stroke-miterlimit:10;">
	<!ENTITY st32 "display:none;">
	<!ENTITY st33 "fill:none;stroke:#878787;stroke-width:3.0132;stroke-linecap:round;stroke-linejoin:round;stroke-miterlimit:10;">
	
		<!ENTITY st34 "fill:none;stroke:#B2B2B2;stroke-width:5.0005;stroke-linecap:round;stroke-linejoin:round;stroke-dasharray:9.0425,9.0425;">
	<!ENTITY st35 "fill:none;stroke:#E6007E;stroke-width:4.5004;stroke-linecap:round;stroke-linejoin:round;stroke-miterlimit:10;">
	
		<!ENTITY st36 "fill:#FFFFFF;stroke:#E6007E;stroke-width:5.0005;stroke-linecap:round;stroke-linejoin:round;stroke-miterlimit:10;">
]>
<svg version="1.0" xmlns="http://www.w3.org/2000/svg" xmlns:xlink="http://www.w3.org/1999/xlink" x="0px" y="0px" width="240px"
	 height="240px" viewBox="0 0 240 240" style="enable-background:new 0 0 240 240;" xml:space="preserve">
<g id="pravítka" style="&st32;">
</g>
<g id="zjištění_očekávání">
</g>
<g id="prostory">
</g>
<g id="příběh">
</g>
<g id="program">
</g>
<g id="scénář">
</g>
<g id="kulturní_program">
</g>
<g id="moderace">
</g>
<g id="režie">
</g>
<g id="produkce">
</g>
<g id="technické_zajištění">
</g>
<g id="catering">
</g>
<g id="hostesky">
</g>
<g id="foto">
</g>
<g id="video">
</g>
<g id="vizáž">
</g>
<g id="sportovní_zázemí">
	<g>
		<path style="&st7;" d="M91.015,37.816c0,0,26.236,7.654,36.409,7.14c0,0-4.315,10.767-35.127,20.098"/>
		<ellipse style="&st28;" cx="93.844" cy="118.471" rx="16.048" ry="6.212"/>
		<path style="&st30;" d="M91.422,122.389c0,1.683-1.92,1.123-4.289,1.123l0,0c-2.367,0-4.287-1.365-4.287-3.049V35.457
			c0-1.684,1.92-3.049,4.287-3.049l0,0c2.369,0,4.289,1.365,4.289,3.049V122.389z"/>
		<path style="&st14;" d="M73.29,96.335c0,0-25.497,9.812-25.497,28.479c0,14.091,19.152,37.4,72.475,37.4
			c53.246,0,72.475-23.31,72.475-37.4c0-11.192-9.296-35.342-73.805-37.395c0,0-11.787,0.711-18.696,2.393"/>
	</g>
	<g>
		<g>
			<path d="M67.635,188.629c0,1.74-0.627,3.111-1.879,4.113c-1.253,1.002-2.995,1.503-5.228,1.503c-2.057,0-3.876-0.387-5.458-1.16
				v-3.797c1.301,0.58,2.401,0.988,3.303,1.227c0.9,0.236,1.725,0.355,2.472,0.355c0.896,0,1.584-0.172,2.063-0.514
				c0.479-0.344,0.719-0.853,0.719-1.529c0-0.378-0.105-0.715-0.316-1.009c-0.211-0.295-0.521-0.578-0.93-0.851
				c-0.409-0.272-1.242-0.707-2.498-1.305c-1.178-0.555-2.062-1.086-2.65-1.596s-1.059-1.103-1.41-1.779s-0.527-1.468-0.527-2.373
				c0-1.705,0.577-3.046,1.733-4.021c1.155-0.976,2.753-1.463,4.792-1.463c1.002,0,1.958,0.118,2.867,0.355
				c0.91,0.237,1.861,0.571,2.854,1.002l-1.318,3.178c-1.028-0.422-1.879-0.717-2.551-0.884c-0.673-0.167-1.334-0.251-1.984-0.251
				c-0.773,0-1.366,0.181-1.78,0.541c-0.412,0.36-0.619,0.83-0.619,1.41c0,0.361,0.084,0.675,0.25,0.943
				c0.168,0.268,0.434,0.527,0.798,0.777c0.364,0.251,1.229,0.701,2.591,1.352c1.802,0.861,3.037,1.725,3.705,2.591
				C67.301,186.311,67.635,187.372,67.635,188.629z"/>
			<path d="M78.906,194.245c-1.731,0-3.09-0.628-4.074-1.885h-0.211c0.141,1.23,0.211,1.941,0.211,2.135v5.973h-4.021v-21.226h3.27
				l0.567,1.911h0.184c0.941-1.458,2.334-2.188,4.18-2.188c1.74,0,3.103,0.672,4.087,2.017s1.477,3.213,1.477,5.603
				c0,1.574-0.23,2.94-0.692,4.101c-0.461,1.16-1.118,2.044-1.971,2.649C81.06,193.942,80.058,194.245,78.906,194.245z
				 M77.72,182.183c-0.993,0-1.718,0.305-2.175,0.916c-0.457,0.61-0.695,1.619-0.713,3.025v0.436c0,1.582,0.235,2.715,0.706,3.4
				c0.47,0.686,1.215,1.029,2.234,1.029c1.802,0,2.702-1.485,2.702-4.457c0-1.449-0.222-2.537-0.665-3.263
				C79.365,182.545,78.669,182.183,77.72,182.183z"/>
			<path d="M101.292,186.585c0,2.4-0.633,4.276-1.898,5.63s-3.028,2.03-5.286,2.03c-1.416,0-2.664-0.31-3.744-0.93
				c-1.082-0.619-1.912-1.51-2.492-2.67s-0.87-2.513-0.87-4.061c0-2.407,0.628-4.279,1.886-5.615
				c1.256-1.336,3.023-2.004,5.299-2.004c1.416,0,2.664,0.308,3.744,0.922c1.082,0.616,1.912,1.499,2.492,2.65
				S101.292,185.039,101.292,186.585z M91.102,186.585c0,1.46,0.238,2.563,0.718,3.31s1.259,1.12,2.341,1.12
				c1.072,0,1.843-0.371,2.313-1.113c0.47-0.743,0.705-1.848,0.705-3.316c0-1.458-0.237-2.553-0.712-3.282s-1.252-1.095-2.334-1.095
				c-1.072,0-1.846,0.363-2.32,1.088C91.338,184.021,91.102,185.118,91.102,186.585z"/>
			<path d="M112.841,178.966c0.545,0,0.997,0.039,1.358,0.118l-0.304,3.771c-0.325-0.088-0.721-0.132-1.187-0.132
				c-1.283,0-2.283,0.329-2.999,0.989c-0.717,0.658-1.075,1.582-1.075,2.768v7.502h-4.021v-14.739h3.046l0.593,2.479h0.198
				c0.457-0.826,1.074-1.492,1.852-1.997C111.081,179.218,111.927,178.966,112.841,178.966z"/>
			<path d="M123.084,191.042c0.703,0,1.547-0.154,2.531-0.462v2.993c-1.002,0.447-2.232,0.672-3.691,0.672
				c-1.607,0-2.779-0.406-3.513-1.22c-0.734-0.813-1.101-2.032-1.101-3.658v-7.106h-1.926v-1.7l2.215-1.345l1.16-3.111h2.571v3.138
				h4.126v3.019h-4.126v7.106c0,0.571,0.16,0.993,0.481,1.266C122.133,190.905,122.557,191.042,123.084,191.042z"/>
			<path d="M141.99,186.585c0,2.4-0.633,4.276-1.898,5.63s-3.028,2.03-5.287,2.03c-1.415,0-2.663-0.31-3.744-0.93
				c-1.081-0.619-1.912-1.51-2.492-2.67s-0.869-2.513-0.869-4.061c0-2.407,0.628-4.279,1.885-5.615s3.023-2.004,5.3-2.004
				c1.415,0,2.663,0.308,3.744,0.922c1.081,0.616,1.911,1.499,2.491,2.65S141.99,185.039,141.99,186.585z M131.799,186.585
				c0,1.46,0.239,2.563,0.719,3.31c0.479,0.747,1.259,1.12,2.34,1.12c1.072,0,1.844-0.371,2.314-1.113
				c0.469-0.743,0.705-1.848,0.705-3.316c0-1.458-0.238-2.553-0.713-3.282s-1.252-1.095-2.333-1.095
				c-1.072,0-1.846,0.363-2.32,1.088C132.036,184.021,131.799,185.118,131.799,186.585z"/>
			<path d="M148.818,193.981l-5.615-14.739h4.205l2.848,8.397c0.316,1.064,0.514,2.07,0.594,3.02h0.078
				c0.045-0.844,0.242-1.85,0.594-3.02l2.834-8.397h4.206l-5.616,14.739H148.818z"/>
			<path d="M174.276,193.981h-4.021v-8.609c0-1.063-0.189-1.86-0.567-2.393c-0.378-0.531-0.979-0.797-1.806-0.797
				c-1.125,0-1.938,0.375-2.439,1.127c-0.501,0.751-0.752,1.997-0.752,3.737v6.935h-4.021v-14.739h3.071l0.541,1.886h0.225
				c0.447-0.713,1.064-1.251,1.852-1.615c0.787-0.365,1.682-0.547,2.684-0.547c1.713,0,3.014,0.463,3.902,1.391
				c0.887,0.927,1.331,2.266,1.331,4.014V193.981z"/>
			<path d="M178.219,177.62v-0.355c1.512-1.758,2.544-3.08,3.098-3.969h4.509v0.277c-0.457,0.457-1.237,1.136-2.34,2.037
				c-1.104,0.9-1.967,1.571-2.591,2.01H178.219z M182.438,193.981h-4.021v-14.739h4.021V193.981z"/>
			<path d="M88.386,217.981H76.744v-2.373l6.83-9.295h-6.421v-3.071h10.995v2.61l-6.645,9.057h6.882V217.981z"/>
			<path d="M100.66,217.981l-0.778-2.004h-0.105c-0.677,0.853-1.374,1.443-2.089,1.773c-0.717,0.329-1.65,0.494-2.803,0.494
				c-1.414,0-2.529-0.404-3.342-1.213s-1.219-1.96-1.219-3.454c0-1.564,0.547-2.718,1.641-3.461
				c1.094-0.742,2.744-1.153,4.951-1.232l2.557-0.079v-0.646c0-1.493-0.764-2.24-2.293-2.24c-1.178,0-2.563,0.355-4.153,1.067
				l-1.331-2.716c1.695-0.888,3.576-1.332,5.643-1.332c1.977,0,3.493,0.432,4.548,1.293s1.582,2.171,1.582,3.928v9.822H100.66z
				 M99.473,211.152l-1.555,0.053c-1.17,0.035-2.039,0.246-2.611,0.633c-0.57,0.387-0.856,0.976-0.856,1.767
				c0,1.134,0.65,1.701,1.951,1.701c0.932,0,1.677-0.269,2.235-0.805c0.557-0.536,0.836-1.248,0.836-2.136V211.152z M95.004,201.62
				v-0.355c1.512-1.758,2.545-3.08,3.098-3.969h4.51v0.277c-0.457,0.457-1.238,1.136-2.34,2.037c-1.104,0.9-1.967,1.571-2.592,2.01
				H95.004z"/>
			<path d="M117.864,217.981h-11.642v-2.373l6.83-9.295h-6.421v-3.071h10.995v2.61l-6.645,9.057h6.882V217.981z"/>
			<path d="M127.449,218.245c-2.373,0-4.229-0.654-5.564-1.965c-1.336-1.309-2.004-3.164-2.004-5.563c0-2.47,0.617-4.38,1.854-5.729
				c1.234-1.35,2.941-2.023,5.121-2.023c2.083,0,3.705,0.593,4.865,1.779s1.74,2.826,1.74,4.918v1.951h-9.506
				c0.044,1.143,0.383,2.034,1.016,2.676s1.52,0.963,2.662,0.963c0.889,0,1.728-0.093,2.519-0.277s1.617-0.479,2.479-0.883v3.111
				c-0.703,0.352-1.454,0.612-2.255,0.784C129.576,218.159,128.6,218.245,127.449,218.245z M126.882,205.826
				c-0.853,0-1.521,0.271-2.004,0.811c-0.483,0.541-0.761,1.308-0.831,2.301h5.643c-0.018-0.993-0.276-1.76-0.777-2.301
				C128.411,206.097,127.734,205.826,126.882,205.826z"/>
			<path d="M149.927,217.981h-4.021v-8.609c0-1.063-0.178-1.86-0.535-2.393c-0.355-0.531-0.916-0.797-1.68-0.797
				c-1.029,0-1.775,0.378-2.242,1.133c-0.465,0.757-0.698,2-0.698,3.731v6.935h-4.021v-14.739h3.071l0.54,1.886h0.225
				c0.396-0.677,0.967-1.207,1.714-1.589c0.747-0.383,1.604-0.573,2.571-0.573c2.205,0,3.699,0.721,4.482,2.162h0.355
				c0.396-0.686,0.978-1.218,1.746-1.596c0.77-0.378,1.638-0.566,2.604-0.566c1.67,0,2.933,0.428,3.79,1.285
				c0.857,0.856,1.285,2.23,1.285,4.119v9.611h-4.033v-8.609c0-1.063-0.178-1.86-0.535-2.393c-0.355-0.531-0.916-0.797-1.68-0.797
				c-0.984,0-1.721,0.352-2.209,1.055s-0.731,1.818-0.731,3.348V217.981z"/>
			<path d="M163.045,201.62v-0.355c1.512-1.758,2.544-3.08,3.098-3.969h4.509v0.277c-0.457,0.457-1.237,1.136-2.34,2.037
				c-1.104,0.9-1.967,1.571-2.591,2.01H163.045z M167.264,217.981h-4.021v-14.739h4.021V217.981z"/>
		</g>
	</g>
</g>
<g id="grafika">
</g>
<g id="branding">
</g>
<g id="tisk">
</g>
<g id="dekorace">
</g>
<g id="dárky">
</g>
<g id="PR">
</g>
<g id="podpora_komunikace">
</g>
<g id="Layer_25">
</g>
</svg>
