<?xml version="1.0" encoding="utf-8"?>
<!-- Generator: Adobe Illustrator 16.0.0, SVG Export Plug-In . SVG Version: 6.00 Build 0)  -->
<!DOCTYPE svg PUBLIC "-//W3C//DTD SVG 1.0//EN" "http://www.w3.org/TR/2001/REC-SVG-20010904/DTD/svg10.dtd" [
	<!ENTITY st0 "fill:none;stroke:#E6007E;stroke-width:4.9167;stroke-linecap:round;stroke-linejoin:round;stroke-miterlimit:10;">
	<!ENTITY st1 "fill:none;stroke:#B2B2B2;stroke-width:4.5992;stroke-linecap:round;stroke-linejoin:round;stroke-miterlimit:10;">
	<!ENTITY st2 "fill:none;stroke:#E6007E;stroke-width:3.8857;stroke-linecap:round;stroke-linejoin:round;stroke-miterlimit:10;">
	
		<!ENTITY st3 "display:inline;fill:none;stroke:#878787;stroke-width:3.2851;stroke-linecap:round;stroke-linejoin:round;stroke-miterlimit:10;">
	<!ENTITY st4 "fill:none;stroke:#B2B2B2;stroke-width:3.596;stroke-linecap:round;stroke-linejoin:round;stroke-miterlimit:10;">
	<!ENTITY st5 "fill:none;stroke:#B2B2B2;stroke-width:4.5769;stroke-linecap:round;stroke-linejoin:round;stroke-miterlimit:10;">
	<!ENTITY st6 "fill:none;stroke:#C6C6C6;stroke-width:5;stroke-linecap:round;stroke-linejoin:round;stroke-miterlimit:10;">
	<!ENTITY st7 "fill:none;stroke:#E6007E;stroke-width:5;stroke-linecap:round;stroke-linejoin:round;stroke-miterlimit:10;">
	<!ENTITY st8 "fill:none;stroke:#B2B2B2;stroke-width:5.0005;stroke-linecap:round;stroke-linejoin:round;">
	<!ENTITY st9 "fill:none;stroke:#E6007E;stroke-width:4.5992;stroke-linecap:round;stroke-linejoin:round;stroke-miterlimit:10;">
	<!ENTITY st10 "fill:none;stroke:#878787;stroke-width:5.0901;stroke-linecap:round;stroke-linejoin:round;stroke-miterlimit:10;">
	<!ENTITY st11 "fill:#0B727F;stroke:#878787;stroke-width:5;stroke-linecap:round;stroke-linejoin:round;stroke-miterlimit:10;">
	<!ENTITY st12 "fill:none;stroke:#B2B2B2;stroke-width:3.5003;stroke-linecap:round;stroke-linejoin:round;stroke-miterlimit:10;">
	<!ENTITY st13 "fill:none;stroke:#B2B2B2;stroke-width:4;stroke-linecap:round;stroke-linejoin:round;stroke-miterlimit:10;">
	<!ENTITY st14 "fill:none;stroke:#B2B2B2;stroke-width:5;stroke-linecap:round;stroke-linejoin:round;stroke-miterlimit:10;">
	<!ENTITY st15 "fill:#FFFFFF;stroke:#B2B2B2;stroke-width:5;stroke-linecap:round;stroke-linejoin:round;stroke-miterlimit:10;">
	<!ENTITY st16 "fill:none;stroke:#B2B2B2;stroke-width:4.3152;stroke-linecap:round;stroke-linejoin:round;stroke-miterlimit:10;">
	<!ENTITY st17 "fill:none;stroke:#B2B2B2;stroke-width:5.0005;stroke-linecap:round;stroke-linejoin:round;stroke-miterlimit:10;">
	<!ENTITY st18 "fill:none;stroke:#878787;stroke-width:3.596;stroke-linecap:round;stroke-linejoin:round;stroke-miterlimit:10;">
	<!ENTITY st19 "fill:none;stroke:#E6007E;stroke-width:3.596;stroke-linecap:round;stroke-linejoin:round;stroke-miterlimit:10;">
	<!ENTITY st20 "fill:none;stroke:#878787;stroke-width:5.0005;stroke-linecap:round;stroke-linejoin:round;stroke-miterlimit:10;">
	<!ENTITY st21 "fill:none;stroke:#B2B2B2;stroke-width:5.0258;stroke-linecap:round;stroke-linejoin:round;stroke-miterlimit:10;">
	<!ENTITY st22 "fill:none;stroke:#9D9D9C;stroke-width:3.5706;stroke-linecap:round;stroke-linejoin:round;stroke-miterlimit:10;">
	
		<!ENTITY st23 "fill:#FFFFFF;stroke:#878787;stroke-width:5.0901;stroke-linecap:round;stroke-linejoin:round;stroke-miterlimit:10;">
	<!ENTITY st24 "fill:none;stroke:#E6007E;stroke-width:4.0727;stroke-linecap:round;stroke-linejoin:round;stroke-miterlimit:10;">
	
		<!ENTITY st25 "fill:#FFFFFF;stroke:#B2B2B2;stroke-width:5.0005;stroke-linecap:round;stroke-linejoin:round;stroke-miterlimit:10;">
	
		<!ENTITY st26 "fill:#FFFFFF;stroke:#B2B2B2;stroke-width:3.2851;stroke-linecap:round;stroke-linejoin:round;stroke-miterlimit:10;">
	<!ENTITY st27 "fill:none;stroke:#878787;stroke-width:4;stroke-linecap:round;stroke-linejoin:round;stroke-miterlimit:10;">
	<!ENTITY st28 "fill:none;stroke:#878787;stroke-width:5;stroke-linecap:round;stroke-linejoin:round;stroke-miterlimit:10;">
	<!ENTITY st29 "fill:none;stroke:#E6007E;stroke-width:5.0005;stroke-linecap:round;stroke-linejoin:round;stroke-miterlimit:10;">
	<!ENTITY st30 "fill:#FFFFFF;stroke:#878787;stroke-width:5;stroke-linecap:round;stroke-linejoin:round;stroke-miterlimit:10;">
	
		<!ENTITY st31 "display:none;fill:none;stroke:#878787;stroke-width:5;stroke-linecap:round;stroke-linejoin:round;stroke-miterlimit:10;">
	<!ENTITY st32 "display:none;">
	<!ENTITY st33 "fill:none;stroke:#878787;stroke-width:3.0132;stroke-linecap:round;stroke-linejoin:round;stroke-miterlimit:10;">
	
		<!ENTITY st34 "fill:none;stroke:#B2B2B2;stroke-width:5.0005;stroke-linecap:round;stroke-linejoin:round;stroke-dasharray:9.0425,9.0425;">
	<!ENTITY st35 "fill:none;stroke:#E6007E;stroke-width:4.5004;stroke-linecap:round;stroke-linejoin:round;stroke-miterlimit:10;">
	
		<!ENTITY st36 "fill:#FFFFFF;stroke:#E6007E;stroke-width:5.0005;stroke-linecap:round;stroke-linejoin:round;stroke-miterlimit:10;">
]>
<svg version="1.0" xmlns="http://www.w3.org/2000/svg" xmlns:xlink="http://www.w3.org/1999/xlink" x="0px" y="0px" width="240px"
	 height="240px" viewBox="0 0 240 240" style="enable-background:new 0 0 240 240;" xml:space="preserve">
<g id="pravítka" style="&st32;">
</g>
<g id="zjištění_očekávání">
</g>
<g id="prostory">
</g>
<g id="příběh">
</g>
<g id="program">
</g>
<g id="scénář">
</g>
<g id="kulturní_program">
	<g>
		<path style="&st17;" d="M84.614,45.345c-0.455-4.501,0.339-13.399,4.673-15.368c3.298-1.498,17.009,3.541,34.748,5.184
			c14.101,1.306,30.87-0.704,33.847,0.246c9.518,3.04,2.289,28.007,0.977,32.604"/>
		<path style="&st36;" d="M93.7,43.046l-65.4,22.6c-4.141,1.83-5.033,7.31-5.033,7.31c4.065,67.03,71.169,80.448,71.169,80.448
			s46.534-40.352,8.954-105.351C103.39,48.053,99.397,41.073,93.7,43.046z"/>
		<path style="&st20;" d="M90.228,116.12c-3.201,4.593-6.436,4.514-11.659,4.514c-10.153,0-17.79-12.987-21.058-7.164
			c-4.066,7.248,6.76,14.775,11.93,17.034c6.806,2.974,13.523,3.247,19.903-0.131c-0.309,0.476-0.557,0.284-0.997,0.413"/>
		<g>
			<path style="&st25;" d="M157.448,78.419c0,0-9.59-10.718-21.153,0.282c0,0-6.206,4.231-8.744,2.539c0,0,7.052,7.616-4.231,14.667
				c-11.281,7.05-16.922,6.769-17.205,0c-0.035-0.846-32.152,19.178-6.486,47.384c25.11,27.591,35.257,13.256,51.896-1.976
				c0,0-15.229-3.384-0.281-17.768c10.786-10.381,13.537-3.668,13.537-3.668s0.564-5.923,4.232-10.717
				c3.666-4.795,6.204-14.948,0-19.744"/>
			<path style="&st25;" d="M194.96,46.831c-0.846,0.563-56.127,50.204-56.127,50.204l10.153,10.436l49.076-55"/>
			<path style="&st25;" d="M208.108,50.091c-2.665,2.688-7.005,2.705-9.691,0.041l-2.434-2.41c-2.688-2.665-2.707-7.004-0.523-8.721
				l8.604-3.052c3.145-3.659,4.568-6.731,7.255-4.067l2.434,2.413c2.688,2.665-0.94,3.87-3.604,6.556L208.108,50.091z"/>
			<line style="&st25;" x1="180.012" y1="48.522" x2="184.384" y2="54.305"/>
			<line style="&st25;" x1="185.089" y1="43.729" x2="189.461" y2="49.51"/>
			<line style="&st25;" x1="199.755" y1="54.163" x2="204.126" y2="58.817"/>
			<line style="&st25;" x1="194.96" y1="59.522" x2="199.332" y2="64.177"/>
			<polygon style="&st25;" points="98.218,141.825 111.751,124.112 121.346,135.11 103.139,147.239 			"/>
			<line style="&st25;" x1="114.013" y1="126.085" x2="140.525" y2="99.855"/>
			<line style="&st25;" x1="120.499" y1="131.163" x2="146.165" y2="105.778"/>
			<path style="&st26;" d="M106.243,113.321c-2.154-1.541-4.524,0.469-3.922,3.023c0.62,2.63,3.475,4.187,6.443,0.648
				c0.999-1.191,9.167-13.739,11.836-8.844c1.485,1.955-0.946,2.785-1.378,2.943"/>
			<path style="&st26;" d="M131.552,141.667c1.613,2.253-0.489,4.734-3.164,4.104c-2.75-0.648-4.381-3.635-0.678-6.743
				c1.244-1.044,14.375-9.594,9.252-12.388c-2.046-1.553-2.915,0.991-3.08,1.443"/>
		</g>
		<path style="&st20;" d="M40.282,99.595c0,0,5.523-14.574,21.146-6.85"/>
		<path style="&st20;" d="M84.757,85.185c0,0,3.382-15.215,19.949-9.805"/>
		<path style="&st17;" d="M149.817,57.546c0,0-7.695,10.59-18.647,0.879"/>
	</g>
	<g>
		<g>
			<path d="M80.307,194.459h-4.641l-5.05-8.121l-1.728,1.239v6.882h-4.086v-19.274h4.086v8.82l1.609-2.268l5.221-6.552h4.535
				l-6.725,8.53L80.307,194.459z"/>
			<path d="M92.857,194.459l-0.541-1.885h-0.211c-0.431,0.686-1.041,1.215-1.832,1.588c-0.791,0.374-1.692,0.561-2.703,0.561
				c-1.731,0-3.037-0.463-3.916-1.391s-1.318-2.261-1.318-4.001v-9.611h4.021v8.609c0,1.063,0.189,1.861,0.566,2.393
				c0.379,0.532,0.98,0.797,1.807,0.797c1.125,0,1.938-0.375,2.439-1.127c0.5-0.751,0.751-1.997,0.751-3.737v-6.935h4.021v14.739
				H92.857z"/>
			<path d="M104.182,194.459h-4.021v-20.514h4.021V194.459z"/>
			<path d="M114.609,191.52c0.703,0,1.547-0.154,2.531-0.461v2.993c-1.002,0.448-2.232,0.672-3.691,0.672
				c-1.607,0-2.779-0.406-3.513-1.22c-0.734-0.813-1.101-2.032-1.101-3.658v-7.106h-1.926v-1.701l2.215-1.345l1.16-3.111h2.571
				v3.138h4.126v3.019h-4.126v7.106c0,0.571,0.16,0.993,0.481,1.266C113.658,191.383,114.082,191.52,114.609,191.52z"/>
			<path d="M130.563,194.459l-0.541-1.885h-0.211c-0.431,0.686-1.041,1.215-1.832,1.588c-0.791,0.374-1.692,0.561-2.703,0.561
				c-1.731,0-3.037-0.463-3.916-1.391s-1.318-2.261-1.318-4.001v-9.611h4.021v8.609c0,1.063,0.189,1.861,0.566,2.393
				c0.379,0.532,0.98,0.797,1.807,0.797c1.125,0,1.938-0.375,2.439-1.127c0.5-0.751,0.751-1.997,0.751-3.737v-6.935h4.021v14.739
				H130.563z"/>
			<path d="M146.092,179.443c0.545,0,0.998,0.04,1.358,0.119l-0.304,3.771c-0.324-0.088-0.721-0.132-1.186-0.132
				c-1.283,0-2.283,0.33-3,0.989s-1.074,1.582-1.074,2.769v7.501h-4.021V179.72h3.046l0.593,2.479h0.198
				c0.457-0.826,1.075-1.492,1.853-1.997S145.178,179.443,146.092,179.443z"/>
			<path d="M163.732,194.459h-4.021v-8.609c0-1.063-0.189-1.861-0.566-2.393c-0.379-0.531-0.98-0.797-1.807-0.797
				c-1.125,0-1.938,0.375-2.439,1.127c-0.5,0.751-0.751,1.997-0.751,3.737v6.935h-4.021V179.72h3.071l0.54,1.885h0.225
				c0.448-0.712,1.065-1.25,1.852-1.615c0.787-0.365,1.682-0.547,2.684-0.547c1.714,0,3.015,0.464,3.902,1.391
				s1.332,2.265,1.332,4.014V194.459z"/>
			<path d="M167.674,178.099v-0.356c1.512-1.758,2.545-3.081,3.098-3.968h4.51v0.277c-0.457,0.457-1.238,1.136-2.34,2.037
				c-1.104,0.901-1.967,1.571-2.592,2.01H167.674z M171.893,194.459h-4.021V179.72h4.021V194.459z"/>
			<path d="M70.194,218.723c-1.731,0-3.089-0.628-4.073-1.885H65.91c0.141,1.23,0.211,1.942,0.211,2.136v5.972H62.1V203.72h3.27
				l0.566,1.912h0.186c0.939-1.459,2.333-2.188,4.179-2.188c1.74,0,3.103,0.672,4.087,2.017s1.477,3.212,1.477,5.603
				c0,1.573-0.23,2.94-0.692,4.1c-0.461,1.16-1.118,2.043-1.971,2.65S71.346,218.723,70.194,218.723z M69.008,206.66
				c-0.993,0-1.719,0.306-2.176,0.917s-0.693,1.619-0.711,3.025v0.435c0,1.582,0.234,2.716,0.705,3.401
				c0.47,0.686,1.215,1.028,2.234,1.028c1.802,0,2.703-1.485,2.703-4.456c0-1.45-0.223-2.538-0.666-3.263
				C70.653,207.023,69.957,206.66,69.008,206.66z"/>
			<path d="M87.412,203.443c0.545,0,0.998,0.04,1.357,0.119l-0.303,3.771c-0.325-0.088-0.721-0.132-1.187-0.132
				c-1.283,0-2.283,0.33-2.999,0.989c-0.717,0.659-1.074,1.582-1.074,2.769v7.501h-4.021V203.72h3.045l0.594,2.479h0.197
				c0.457-0.826,1.075-1.492,1.853-1.997C85.652,203.696,86.498,203.443,87.412,203.443z"/>
			<path d="M104.841,211.063c0,2.399-0.633,4.276-1.898,5.629s-3.028,2.03-5.286,2.03c-1.416,0-2.664-0.31-3.744-0.93
				c-1.082-0.619-1.912-1.509-2.492-2.669s-0.87-2.514-0.87-4.061c0-2.408,0.628-4.28,1.886-5.616
				c1.256-1.336,3.023-2.004,5.299-2.004c1.416,0,2.664,0.308,3.744,0.923c1.082,0.615,1.912,1.499,2.492,2.65
				S104.841,209.517,104.841,211.063z M94.65,211.063c0,1.459,0.238,2.562,0.718,3.309s1.259,1.121,2.341,1.121
				c1.072,0,1.843-0.371,2.313-1.114c0.47-0.743,0.705-1.848,0.705-3.316c0-1.459-0.237-2.553-0.712-3.283s-1.252-1.094-2.334-1.094
				c-1.072,0-1.846,0.363-2.32,1.087C94.887,208.5,94.65,209.596,94.65,211.063z"/>
			<path d="M120.99,203.72v2.043l-2.307,0.593c0.422,0.659,0.633,1.397,0.633,2.215c0,1.582-0.552,2.814-1.654,3.698
				c-1.104,0.883-2.635,1.325-4.595,1.325l-0.726-0.04l-0.593-0.066c-0.413,0.316-0.62,0.668-0.62,1.055
				c0,0.58,0.738,0.87,2.215,0.87h2.506c1.617,0,2.85,0.347,3.697,1.042s1.272,1.714,1.272,3.059c0,1.723-0.719,3.059-2.155,4.008
				c-1.438,0.949-3.5,1.424-6.189,1.424c-2.057,0-3.629-0.358-4.714-1.074c-1.085-0.717-1.628-1.721-1.628-3.013
				c0-0.888,0.277-1.63,0.83-2.228c0.555-0.598,1.367-1.024,2.439-1.279c-0.413-0.176-0.773-0.463-1.081-0.863
				s-0.462-0.824-0.462-1.272c0-0.563,0.163-1.03,0.488-1.404c0.325-0.373,0.795-0.74,1.41-1.101
				c-0.773-0.334-1.387-0.87-1.839-1.608s-0.679-1.608-0.679-2.61c0-1.608,0.523-2.852,1.568-3.731
				c1.047-0.879,2.541-1.318,4.482-1.318c0.414,0,0.903,0.038,1.471,0.112c0.566,0.075,0.93,0.13,1.088,0.165H120.99z
				 M109.613,220.542c0,0.554,0.266,0.989,0.798,1.305c0.531,0.316,1.276,0.475,2.234,0.475c1.441,0,2.571-0.198,3.388-0.593
				c0.818-0.396,1.227-0.936,1.227-1.622c0-0.554-0.242-0.936-0.725-1.147c-0.484-0.211-1.23-0.316-2.242-0.316h-2.082
				c-0.738,0-1.356,0.173-1.853,0.521C109.861,219.512,109.613,219.971,109.613,220.542z M111.076,208.545
				c0,0.8,0.183,1.433,0.548,1.898c0.364,0.466,0.921,0.699,1.667,0.699c0.756,0,1.311-0.233,1.662-0.699s0.527-1.099,0.527-1.898
				c0-1.775-0.73-2.663-2.189-2.663C111.814,205.882,111.076,206.77,111.076,208.545z"/>
			<path d="M131.643,203.443c0.545,0,0.998,0.04,1.358,0.119l-0.304,3.771c-0.324-0.088-0.721-0.132-1.186-0.132
				c-1.283,0-2.283,0.33-3,0.989s-1.074,1.582-1.074,2.769v7.501h-4.021V203.72h3.046l0.593,2.479h0.198
				c0.457-0.826,1.075-1.492,1.853-1.997S130.729,203.443,131.643,203.443z"/>
			<path d="M145.037,218.459l-0.777-2.004h-0.105c-0.677,0.853-1.373,1.443-2.09,1.773c-0.717,0.329-1.65,0.494-2.801,0.494
				c-1.416,0-2.529-0.404-3.342-1.213c-0.814-0.809-1.221-1.96-1.221-3.454c0-1.564,0.547-2.718,1.643-3.461
				c1.094-0.742,2.744-1.153,4.949-1.232l2.559-0.079v-0.646c0-1.494-0.766-2.241-2.295-2.241c-1.178,0-2.562,0.356-4.152,1.068
				l-1.332-2.716c1.697-0.888,3.578-1.332,5.643-1.332c1.979,0,3.494,0.431,4.549,1.292s1.582,2.171,1.582,3.929v9.822H145.037z
				 M143.852,211.63l-1.557,0.053c-1.168,0.035-2.039,0.246-2.609,0.633c-0.572,0.387-0.857,0.976-0.857,1.767
				c0,1.134,0.65,1.701,1.951,1.701c0.932,0,1.676-0.268,2.234-0.804s0.838-1.248,0.838-2.136V211.63z"/>
			<path d="M165.182,218.459h-4.021v-8.609c0-1.063-0.178-1.861-0.534-2.393c-0.355-0.531-0.916-0.797-1.681-0.797
				c-1.028,0-1.775,0.378-2.241,1.134s-0.699,2-0.699,3.731v6.935h-4.021V203.72h3.071l0.541,1.885h0.225
				c0.395-0.677,0.967-1.207,1.713-1.588c0.748-0.383,1.604-0.574,2.571-0.574c2.206,0,3.7,0.721,4.482,2.162h0.356
				c0.395-0.686,0.977-1.217,1.746-1.595s1.637-0.567,2.604-0.567c1.67,0,2.934,0.428,3.791,1.286
				c0.856,0.856,1.285,2.23,1.285,4.12v9.611h-4.034v-8.609c0-1.063-0.178-1.861-0.534-2.393c-0.355-0.531-0.916-0.797-1.681-0.797
				c-0.984,0-1.721,0.352-2.208,1.055c-0.488,0.703-0.732,1.819-0.732,3.349V218.459z"/>
		</g>
	</g>
</g>
<g id="moderace">
</g>
<g id="režie">
</g>
<g id="produkce">
</g>
<g id="technické_zajištění">
</g>
<g id="catering">
</g>
<g id="hostesky">
</g>
<g id="foto">
</g>
<g id="video">
</g>
<g id="vizáž">
</g>
<g id="sportovní_zázemí">
</g>
<g id="grafika">
</g>
<g id="branding">
</g>
<g id="tisk">
</g>
<g id="dekorace">
</g>
<g id="dárky">
</g>
<g id="PR">
</g>
<g id="podpora_komunikace">
</g>
<g id="Layer_25">
</g>
</svg>
