<?xml version="1.0" encoding="utf-8"?>
<!-- Generator: Adobe Illustrator 16.0.0, SVG Export Plug-In . SVG Version: 6.00 Build 0)  -->
<!DOCTYPE svg PUBLIC "-//W3C//DTD SVG 1.1//EN" "http://www.w3.org/Graphics/SVG/1.1/DTD/svg11.dtd">
<svg version="1.1" id="Layer_1" xmlns="http://www.w3.org/2000/svg" xmlns:xlink="http://www.w3.org/1999/xlink" x="0px" y="0px"
	 width="500px" height="708px" viewBox="0 0 500 708" enable-background="new 0 0 500 708" xml:space="preserve">
<rect x="43.072" y="53" fill="#EDEDED" width="344" height="36"/>
<rect x="43.072" y="22" fill="#EDEDED" width="50" height="14"/>
<rect x="43.072" y="119" fill="#EDEDED" width="258" height="16"/>
</svg>
